LSD/WSpace/TimerLatch/simulation/qsim/TimerLatchDemo.msim.vcd
$comment
	File created using the following command:
		vcd file TimerLatchDemo.msim.vcd -direction
$end
$date
	Sat Jun 19 19:44:25 2021
$end
$version
	ModelSim Version 10.5b
$end
$timescale
	1ps
$end

$scope module timern_vhd_vec_tst $end
$var wire 1 ! clk $end
$var wire 1 " halt $end
$var wire 1 # latch $end
$var wire 1 $ start $end
$var wire 1 % timerOut $end

$scope module i1 $end
$var wire 1 & gnd $end
$var wire 1 ' vcc $end
$var wire 1 ( unknown $end
$var wire 1 ) devoe $end
$var wire 1 * devclrn $end
$var wire 1 + devpor $end
$var wire 1 , ww_devoe $end
$var wire 1 - ww_devclrn $end
$var wire 1 . ww_devpor $end
$var wire 1 / ww_clk $end
$var wire 1 0 ww_latch $end
$var wire 1 1 ww_start $end
$var wire 1 2 ww_halt $end
$var wire 1 3 ww_timerOut $end
$var wire 1 4 \timerOut~output_o\ $end
$var wire 1 5 \clk~input_o\ $end
$var wire 1 6 \s_counter[0]~32_combout\ $end
$var wire 1 7 \latch~input_o\ $end
$var wire 1 8 \s_counter[0]~38_combout\ $end
$var wire 1 9 \halt~input_o\ $end
$var wire 1 : \s_counter[0]~39_combout\ $end
$var wire 1 ; \Equal0~10_combout\ $end
$var wire 1 < \start~input_o\ $end
$var wire 1 = \s_counter[0]~40_combout\ $end
$var wire 1 > \s_counter[0]~33\ $end
$var wire 1 ? \s_counter[1]~34_combout\ $end
$var wire 1 @ \s_counter[1]~35\ $end
$var wire 1 A \s_counter[2]~36_combout\ $end
$var wire 1 B \s_counter[2]~37\ $end
$var wire 1 C \s_counter[3]~41_combout\ $end
$var wire 1 D \s_counter[3]~42\ $end
$var wire 1 E \s_counter[4]~43_combout\ $end
$var wire 1 F \s_counter[4]~44\ $end
$var wire 1 G \s_counter[5]~45_combout\ $end
$var wire 1 H \Equal0~0_combout\ $end
$var wire 1 I \s_counter[5]~46\ $end
$var wire 1 J \s_counter[6]~47_combout\ $end
$var wire 1 K \s_counter[6]~48\ $end
$var wire 1 L \s_counter[7]~49_combout\ $end
$var wire 1 M \s_counter[7]~50\ $end
$var wire 1 N \s_counter[8]~51_combout\ $end
$var wire 1 O \s_counter[8]~52\ $end
$var wire 1 P \s_counter[9]~53_combout\ $end
$var wire 1 Q \Equal0~1_combout\ $end
$var wire 1 R \s_counter[9]~54\ $end
$var wire 1 S \s_counter[10]~55_combout\ $end
$var wire 1 T \s_counter[10]~56\ $end
$var wire 1 U \s_counter[11]~57_combout\ $end
$var wire 1 V \s_counter[11]~58\ $end
$var wire 1 W \s_counter[12]~59_combout\ $end
$var wire 1 X \s_counter[12]~60\ $end
$var wire 1 Y \s_counter[13]~61_combout\ $end
$var wire 1 Z \Equal0~2_combout\ $end
$var wire 1 [ \s_counter[13]~62\ $end
$var wire 1 \ \s_counter[14]~63_combout\ $end
$var wire 1 ] \s_counter[14]~64\ $end
$var wire 1 ^ \s_counter[15]~65_combout\ $end
$var wire 1 _ \s_counter[15]~66\ $end
$var wire 1 ` \s_counter[16]~67_combout\ $end
$var wire 1 a \s_counter[16]~68\ $end
$var wire 1 b \s_counter[17]~69_combout\ $end
$var wire 1 c \Equal0~3_combout\ $end
$var wire 1 d \Equal0~4_combout\ $end
$var wire 1 e \s_counter[17]~70\ $end
$var wire 1 f \s_counter[18]~71_combout\ $end
$var wire 1 g \s_counter[18]~72\ $end
$var wire 1 h \s_counter[19]~73_combout\ $end
$var wire 1 i \s_counter[19]~74\ $end
$var wire 1 j \s_counter[20]~75_combout\ $end
$var wire 1 k \s_counter[20]~76\ $end
$var wire 1 l \s_counter[21]~77_combout\ $end
$var wire 1 m \Equal0~5_combout\ $end
$var wire 1 n \s_counter[21]~78\ $end
$var wire 1 o \s_counter[22]~79_combout\ $end
$var wire 1 p \s_counter[22]~80\ $end
$var wire 1 q \s_counter[23]~81_combout\ $end
$var wire 1 r \s_counter[23]~82\ $end
$var wire 1 s \s_counter[24]~83_combout\ $end
$var wire 1 t \s_counter[24]~84\ $end
$var wire 1 u \s_counter[25]~85_combout\ $end
$var wire 1 v \Equal0~6_combout\ $end
$var wire 1 w \s_counter[25]~86\ $end
$var wire 1 x \s_counter[26]~87_combout\ $end
$var wire 1 y \s_counter[26]~88\ $end
$var wire 1 z \s_counter[27]~89_combout\ $end
$var wire 1 { \s_counter[27]~90\ $end
$var wire 1 | \s_counter[28]~91_combout\ $end
$var wire 1 } \s_counter[28]~92\ $end
$var wire 1 ~ \s_counter[29]~93_combout\ $end
$var wire 1 !! \Equal0~7_combout\ $end
$var wire 1 "! \s_counter[29]~94\ $end
$var wire 1 #! \s_counter[30]~95_combout\ $end
$var wire 1 $! \s_counter[30]~96\ $end
$var wire 1 %! \s_counter[31]~97_combout\ $end
$var wire 1 &! \Equal0~8_combout\ $end
$var wire 1 '! \Equal0~9_combout\ $end
$var wire 1 (! \timerOut~0_combout\ $end
$var wire 1 )! \timerOut~1_combout\ $end
$var wire 1 *! \timerOut~reg0_q\ $end
$var wire 1 +! s_counter [31] $end
$var wire 1 ,! s_counter [30] $end
$var wire 1 -! s_counter [29] $end
$var wire 1 .! s_counter [28] $end
$var wire 1 /! s_counter [27] $end
$var wire 1 0! s_counter [26] $end
$var wire 1 1! s_counter [25] $end
$var wire 1 2! s_counter [24] $end
$var wire 1 3! s_counter [23] $end
$var wire 1 4! s_counter [22] $end
$var wire 1 5! s_counter [21] $end
$var wire 1 6! s_counter [20] $end
$var wire 1 7! s_counter [19] $end
$var wire 1 8! s_counter [18] $end
$var wire 1 9! s_counter [17] $end
$var wire 1 :! s_counter [16] $end
$var wire 1 ;! s_counter [15] $end
$var wire 1 <! s_counter [14] $end
$var wire 1 =! s_counter [13] $end
$var wire 1 >! s_counter [12] $end
$var wire 1 ?! s_counter [11] $end
$var wire 1 @! s_counter [10] $end
$var wire 1 A! s_counter [9] $end
$var wire 1 B! s_counter [8] $end
$var wire 1 C! s_counter [7] $end
$var wire 1 D! s_counter [6] $end
$var wire 1 E! s_counter [5] $end
$var wire 1 F! s_counter [4] $end
$var wire 1 G! s_counter [3] $end
$var wire 1 H! s_counter [2] $end
$var wire 1 I! s_counter [1] $end
$var wire 1 J! s_counter [0] $end
$upscope $end
$upscope $end
$enddefinitions $end
#0
$dumpvars
0!
0"
0#
1$
0%
0&
1'
x(
1)
1*
1+
1,
1-
1.
0/
00
11
02
03
04
05
16
07
08
09
0:
1;
1<
1=
0>
0?
1@
0A
0B
0C
1D
0E
0F
0G
1H
1I
0J
0K
0L
1M
0N
0O
0P
1Q
1R
0S
0T
0U
1V
0W
0X
0Y
1Z
1[
0\
0]
0^
1_
0`
0a
0b
1c
1d
1e
0f
0g
0h
1i
0j
0k
0l
1m
1n
0o
0p
0q
1r
0s
0t
0u
1v
1w
0x
0y
0z
1{
0|
0}
0~
1!!
1"!
0#!
0$!
0%!
1&!
1'!
0(!
0)!
0*!
0+!
0,!
0-!
0.!
0/!
00!
01!
02!
03!
04!
05!
06!
07!
08!
09!
0:!
0;!
0<!
0=!
0>!
0?!
0@!
0A!
0B!
0C!
0D!
0E!
0F!
0G!
0H!
0I!
0J!
$end
#25000
1!
1/
15
1J!
06
1>
0;
1?
#50000
0!
0/
05
#75000
1!
1/
15
0J!
1I!
0?
0@
16
0>
1?
1@
1A
0A
#100000
0!
0/
05
#125000
1!
1/
15
1J!
06
1>
1:
1(!
1)!
0=
0?
0@
1A
#150000
0!
0/
05
#175000
1!
1/
15
1*!
14
13
1%
#200000
0!
0/
05
#225000
1!
1/
15
#250000
0!
0/
05
#275000
1!
1/
15
#300000
0!
0/
05
#325000
1!
1/
15
#350000
0!
0/
05
#375000
1!
1/
15
#400000
0!
0/
05
#425000
1!
1/
15
#450000
0!
0/
05
#475000
1!
1/
15
#500000
0!
0/
05
#525000
1!
1/
15
#550000
0!
0/
05
#575000
1!
1/
15
#600000
0!
0/
05
#625000
1!
1/
15
#650000
0!
0/
05
#675000
1!
1/
15
#700000
0!
0/
05
#725000
1!
1/
15
#750000
0!
0/
05
#775000
1!
1/
15
#800000
0!
0/
05
#825000
1!
1/
15
#850000
0!
0/
05
#875000
1!
1/
15
#900000
0!
0/
05
#925000
1!
1/
15
#950000
0!
0/
05
#975000
1!
1/
15
