LSD/WSpace/FreqDiv/simulation/qsim/divFreqDemo.msim.vcd
$comment
	File created using the following command:
		vcd file divFreqDemo.msim.vcd -direction
$end
$date
	Tue May 25 23:38:23 2021
$end
$version
	ModelSim Version 10.5b
$end
$timescale
	1ps
$end

$scope module freqdiv_vhd_vec_tst $end
$var wire 1 ! clkIn $end
$var wire 1 " clkOut $end
$var wire 1 # reset $end

$scope module i1 $end
$var wire 1 $ gnd $end
$var wire 1 % vcc $end
$var wire 1 & unknown $end
$var wire 1 ' devoe $end
$var wire 1 ( devclrn $end
$var wire 1 ) devpor $end
$var wire 1 * ww_devoe $end
$var wire 1 + ww_devclrn $end
$var wire 1 , ww_devpor $end
$var wire 1 - ww_reset $end
$var wire 1 . ww_clkIn $end
$var wire 1 / ww_clkOut $end
$var wire 1 0 \clkOut~output_o\ $end
$var wire 1 1 \clkIn~input_o\ $end
$var wire 1 2 \s_counter[0]~31_combout\ $end
$var wire 1 3 \reset~input_o\ $end
$var wire 1 4 \s_counter[1]~34\ $end
$var wire 1 5 \s_counter[2]~35_combout\ $end
$var wire 1 6 \s_counter[2]~36\ $end
$var wire 1 7 \s_counter[3]~37_combout\ $end
$var wire 1 8 \Equal0~9_combout\ $end
$var wire 1 9 \process_0~0_combout\ $end
$var wire 1 : \s_counter[0]~32\ $end
$var wire 1 ; \s_counter[1]~33_combout\ $end
$var wire 1 < \s_counter[3]~38\ $end
$var wire 1 = \s_counter[4]~39_combout\ $end
$var wire 1 > \s_counter[4]~40\ $end
$var wire 1 ? \s_counter[5]~41_combout\ $end
$var wire 1 @ \s_counter[5]~42\ $end
$var wire 1 A \s_counter[6]~43_combout\ $end
$var wire 1 B \Equal0~0_combout\ $end
$var wire 1 C \s_counter[6]~44\ $end
$var wire 1 D \s_counter[7]~45_combout\ $end
$var wire 1 E \s_counter[7]~46\ $end
$var wire 1 F \s_counter[8]~47_combout\ $end
$var wire 1 G \s_counter[8]~48\ $end
$var wire 1 H \s_counter[9]~49_combout\ $end
$var wire 1 I \s_counter[9]~50\ $end
$var wire 1 J \s_counter[10]~51_combout\ $end
$var wire 1 K \Equal0~1_combout\ $end
$var wire 1 L \s_counter[10]~52\ $end
$var wire 1 M \s_counter[11]~53_combout\ $end
$var wire 1 N \s_counter[11]~54\ $end
$var wire 1 O \s_counter[12]~55_combout\ $end
$var wire 1 P \s_counter[12]~56\ $end
$var wire 1 Q \s_counter[13]~57_combout\ $end
$var wire 1 R \s_counter[13]~58\ $end
$var wire 1 S \s_counter[14]~59_combout\ $end
$var wire 1 T \Equal0~2_combout\ $end
$var wire 1 U \s_counter[14]~60\ $end
$var wire 1 V \s_counter[15]~61_combout\ $end
$var wire 1 W \s_counter[15]~62\ $end
$var wire 1 X \s_counter[16]~63_combout\ $end
$var wire 1 Y \s_counter[16]~64\ $end
$var wire 1 Z \s_counter[17]~65_combout\ $end
$var wire 1 [ \s_counter[17]~66\ $end
$var wire 1 \ \s_counter[18]~67_combout\ $end
$var wire 1 ] \Equal0~3_combout\ $end
$var wire 1 ^ \Equal0~4_combout\ $end
$var wire 1 _ \s_counter[18]~68\ $end
$var wire 1 ` \s_counter[19]~69_combout\ $end
$var wire 1 a \s_counter[19]~70\ $end
$var wire 1 b \s_counter[20]~71_combout\ $end
$var wire 1 c \s_counter[20]~72\ $end
$var wire 1 d \s_counter[21]~73_combout\ $end
$var wire 1 e \s_counter[21]~74\ $end
$var wire 1 f \s_counter[22]~75_combout\ $end
$var wire 1 g \Equal0~5_combout\ $end
$var wire 1 h \s_counter[22]~76\ $end
$var wire 1 i \s_counter[23]~77_combout\ $end
$var wire 1 j \s_counter[23]~78\ $end
$var wire 1 k \s_counter[24]~79_combout\ $end
$var wire 1 l \s_counter[24]~80\ $end
$var wire 1 m \s_counter[25]~81_combout\ $end
$var wire 1 n \s_counter[25]~82\ $end
$var wire 1 o \s_counter[26]~83_combout\ $end
$var wire 1 p \Equal0~6_combout\ $end
$var wire 1 q \s_counter[26]~84\ $end
$var wire 1 r \s_counter[27]~85_combout\ $end
$var wire 1 s \s_counter[27]~86\ $end
$var wire 1 t \s_counter[28]~87_combout\ $end
$var wire 1 u \s_counter[28]~88\ $end
$var wire 1 v \s_counter[29]~89_combout\ $end
$var wire 1 w \s_counter[29]~90\ $end
$var wire 1 x \s_counter[30]~91_combout\ $end
$var wire 1 y \Equal0~7_combout\ $end
$var wire 1 z \Equal0~8_combout\ $end
$var wire 1 { \clkOut~0_combout\ $end
$var wire 1 | \clkOut~1_combout\ $end
$var wire 1 } \clkOut~reg0_q\ $end
$var wire 1 ~ s_counter [30] $end
$var wire 1 !! s_counter [29] $end
$var wire 1 "! s_counter [28] $end
$var wire 1 #! s_counter [27] $end
$var wire 1 $! s_counter [26] $end
$var wire 1 %! s_counter [25] $end
$var wire 1 &! s_counter [24] $end
$var wire 1 '! s_counter [23] $end
$var wire 1 (! s_counter [22] $end
$var wire 1 )! s_counter [21] $end
$var wire 1 *! s_counter [20] $end
$var wire 1 +! s_counter [19] $end
$var wire 1 ,! s_counter [18] $end
$var wire 1 -! s_counter [17] $end
$var wire 1 .! s_counter [16] $end
$var wire 1 /! s_counter [15] $end
$var wire 1 0! s_counter [14] $end
$var wire 1 1! s_counter [13] $end
$var wire 1 2! s_counter [12] $end
$var wire 1 3! s_counter [11] $end
$var wire 1 4! s_counter [10] $end
$var wire 1 5! s_counter [9] $end
$var wire 1 6! s_counter [8] $end
$var wire 1 7! s_counter [7] $end
$var wire 1 8! s_counter [6] $end
$var wire 1 9! s_counter [5] $end
$var wire 1 :! s_counter [4] $end
$var wire 1 ;! s_counter [3] $end
$var wire 1 <! s_counter [2] $end
$var wire 1 =! s_counter [1] $end
$var wire 1 >! s_counter [0] $end
$upscope $end
$upscope $end
$enddefinitions $end
#0
$dumpvars
0!
0"
0#
0$
1%
x&
1'
1(
1)
1*
1+
1,
0-
0.
0/
00
01
12
03
14
05
06
07
08
09
0:
0;
1<
0=
0>
0?
1@
0A
1B
0C
0D
1E
0F
0G
0H
1I
0J
1K
0L
0M
1N
0O
0P
0Q
1R
0S
1T
0U
0V
1W
0X
0Y
0Z
1[
0\
1]
1^
0_
0`
1a
0b
0c
0d
1e
0f
1g
0h
0i
1j
0k
0l
0m
1n
0o
1p
0q
0r
1s
0t
0u
0v
1w
0x
1y
1z
0{
0|
0}
0~
0!!
0"!
0#!
0$!
0%!
0&!
0'!
0(!
0)!
0*!
0+!
0,!
0-!
0.!
0/!
00!
01!
02!
03!
04!
05!
06!
07!
08!
09!
0:!
0;!
0<!
0=!
0>!
$end
#20000
1!
1.
11
1>!
02
1:
1;
#40000
0!
0.
01
#60000
1!
1.
11
0>!
1=!
0;
04
0B
12
0:
1;
14
0^
15
0z
05
#80000
0!
0.
01
#100000
1!
1.
11
1>!
02
1:
0;
04
15
#120000
0!
0.
01
#140000
1!
1.
11
1<!
0>!
0=!
1;
14
1B
12
0:
05
16
1{
17
0;
1^
15
06
07
1z
1|
#160000
0!
0.
01
#180000
1!
1.
11
1>!
1}
02
1:
0{
1;
10
1/
1"
#200000
0!
0.
01
#220000
1!
1.
11
0>!
1=!
0;
04
0B
12
0:
1{
1;
14
0^
05
16
17
0z
15
06
07
#240000
0!
0.
01
#260000
1!
1.
11
1>!
02
1:
0{
0;
04
05
16
17
#280000
0!
0.
01
#300000
1!
1.
11
0<!
1;!
0>!
0=!
1;
14
1B
12
0:
07
0<
15
06
17
1<
1=
0;
1^
05
1z
0=
#320000
0!
0.
01
#340000
1!
1.
11
1>!
02
1:
18
19
1;
0|
#360000
0!
0.
01
#380000
1!
1.
11
0;!
0>!
0}
12
0:
07
08
09
0;
00
0/
0"
#400000
0!
0.
01
#420000
1!
1.
11
1>!
02
1:
1;
#440000
0!
0.
01
#460000
1!
1.
11
0>!
1=!
0;
04
0B
12
0:
1;
14
0^
15
0z
05
#480000
0!
0.
01
#500000
1!
1.
11
1>!
02
1:
0;
04
15
#520000
0!
0.
01
#540000
1!
1.
11
1<!
0>!
0=!
1;
14
1B
12
0:
05
16
1{
17
0;
1^
15
06
07
1z
1|
#560000
0!
0.
01
#580000
1!
1.
11
1>!
1}
02
1:
0{
1;
10
1/
1"
#600000
0!
0.
01
#620000
1!
1.
11
0>!
1=!
0;
04
0B
12
0:
1{
1;
14
0^
05
16
17
0z
15
06
07
#640000
0!
0.
01
#660000
1!
1.
11
1>!
02
1:
0{
0;
04
05
16
17
#680000
0!
0.
01
#700000
1!
1#
1.
1-
13
11
0<!
1;!
0>!
0=!
19
0|
1;
14
1B
12
0:
07
0<
15
06
17
1<
1=
0;
1^
05
1z
0=
#720000
0!
0.
01
#740000
1!
1.
11
0;!
0}
07
00
0/
0"
#760000
0!
0.
01
#780000
1!
1.
11
#800000
0!
0.
01
#820000
1!
1.
11
#840000
0!
0.
01
#860000
1!
1.
11
#880000
0!
0.
01
#900000
1!
1.
11
#920000
0!
0.
01
#940000
1!
1.
11
#960000
0!
0.
01
#980000
1!
1.
11
