LECI/AC2/ISD/PL/Teste/CounterRCO/simulation/qsim/CounterRCO.msim.vcd
$comment
	File created using the following command:
		vcd file CounterRCO.msim.vcd -direction
$end
$date
	Mon Jan 17 20:52:11 2022
$end
$version
	ModelSim Version 10.5b
$end
$timescale
	1ps
$end

$scope module CounterRCO_vlg_vec_tst $end
$var reg 1 ! clear $end
$var reg 1 " clk $end
$var reg 1 # load $end
$var wire 1 $ qa $end
$var wire 1 % qb $end
$var wire 1 & qc $end
$var wire 1 ' qd $end
$var wire 1 ( rco $end

$scope module i1 $end
$var wire 1 ) gnd $end
$var wire 1 * vcc $end
$var wire 1 + unknown $end
$var tri1 1 , devclrn $end
$var tri1 1 - devpor $end
$var tri1 1 . devoe $end
$var wire 1 / qa~output_o $end
$var wire 1 0 qb~output_o $end
$var wire 1 1 qc~output_o $end
$var wire 1 2 qd~output_o $end
$var wire 1 3 rco~output_o $end
$var wire 1 4 clk~input_o $end
$var wire 1 5 clk~inputclkctrl_outclk $end
$var wire 1 6 clear~input_o $end
$var wire 1 7 load~input_o $end
$var wire 1 8 inst|sub|68~combout $end
$var wire 1 9 inst|sub|34~q $end
$var wire 1 : inst|sub|115~0_combout $end
$var wire 1 ; inst|sub|111~q $end
$var wire 1 < inst|sub|120~combout $end
$var wire 1 = inst|sub|126~0_combout $end
$var wire 1 > inst|sub|122~q $end
$var wire 1 ? inst|sub|131~combout $end
$var wire 1 @ inst|sub|137~0_combout $end
$var wire 1 A inst|sub|134~q $end
$var wire 1 B inst|sub|128~combout $end
$upscope $end
$upscope $end
$enddefinitions $end
#0
$dumpvars
1!
0"
1#
0$
0%
0&
0'
0(
0)
1*
x+
1,
1-
1.
0/
00
01
02
03
04
05
16
17
18
09
0:
0;
0<
0=
0>
0?
0@
0A
0B
$end
#25000
1"
14
15
19
1/
1$
1:
08
#50000
0"
04
05
#75000
1"
14
15
1;
09
0/
10
1%
0$
18
#100000
0"
04
05
#125000
1"
14
15
19
1/
1<
1$
0:
08
1=
#150000
0"
04
05
#175000
1"
14
15
1>
0;
09
0/
00
11
1&
0%
0$
18
#200000
0"
04
05
#225000
1"
14
15
19
1/
1$
1:
08
#250000
0"
04
05
#275000
1"
14
15
1;
09
0/
10
1%
0$
18
#300000
0"
04
05
#325000
1"
14
15
19
1/
1?
0<
1$
0:
08
1@
0=
#350000
0"
04
05
#375000
1"
14
15
1A
0>
0;
09
0/
00
01
12
1'
0&
0%
0$
18
#400000
0"
04
05
#425000
1"
14
15
19
1/
1$
1:
08
#450000
0"
04
05
#475000
1"
14
15
1;
09
0/
10
1%
0$
18
#500000
0"
04
05
#525000
1"
14
15
19
1/
1<
1$
0:
08
1=
#550000
0"
04
05
#575000
1"
14
15
1>
0;
09
0/
00
11
1&
0%
0$
18
#600000
0"
04
05
#625000
1"
14
15
19
1/
1$
1:
08
#650000
0"
04
05
#675000
1"
14
15
1;
09
0/
10
1%
0$
18
#700000
0"
04
05
#725000
1"
14
15
19
1/
0?
0<
1$
1B
0:
08
13
1(
0@
0=
#750000
0"
04
05
#775000
1"
14
15
0A
0>
0;
09
0/
00
01
02
0'
0&
0%
0$
0B
18
03
0(
#800000
0"
04
05
#825000
1"
14
15
19
1/
1$
1:
08
#850000
0"
04
05
#875000
1"
14
15
1;
09
0/
10
1%
0$
18
#900000
0"
04
05
#925000
1"
14
15
19
1/
1<
1$
0:
08
1=
#950000
0"
04
05
#975000
1"
14
15
1>
0;
09
0/
00
11
1&
0%
0$
18
