ISD/PL/Guiao5/EqCmp/simulation/qsim/EqCmpDemo.msim.vcd
$comment
	File created using the following command:
		vcd file EqCmpDemo.msim.vcd -direction
$end
$date
	Fri Nov 12 10:44:18 2021
$end
$version
	ModelSim Version 10.5b
$end
$timescale
	1ps
$end

$scope module EqCmp16Demo_vlg_vec_tst $end
$var reg 16 ! in0 [15:0] $end
$var reg 16 " in1 [15:0] $end
$var wire 1 # out0 $end

$scope module i1 $end
$var wire 1 $ gnd $end
$var wire 1 % vcc $end
$var wire 1 & unknown $end
$var tri1 1 ' devclrn $end
$var tri1 1 ( devpor $end
$var tri1 1 ) devoe $end
$var wire 1 * out0~output_o $end
$var wire 1 + in0[0]~input_o $end
$var wire 1 , in0[1]~input_o $end
$var wire 1 - in1[1]~input_o $end
$var wire 1 . in1[0]~input_o $end
$var wire 1 / inst4~0_combout $end
$var wire 1 0 in0[2]~input_o $end
$var wire 1 1 in0[3]~input_o $end
$var wire 1 2 in1[3]~input_o $end
$var wire 1 3 in1[2]~input_o $end
$var wire 1 4 inst4~1_combout $end
$var wire 1 5 in0[4]~input_o $end
$var wire 1 6 in0[5]~input_o $end
$var wire 1 7 in1[5]~input_o $end
$var wire 1 8 in1[4]~input_o $end
$var wire 1 9 inst4~2_combout $end
$var wire 1 : in0[6]~input_o $end
$var wire 1 ; in0[7]~input_o $end
$var wire 1 < in1[7]~input_o $end
$var wire 1 = in1[6]~input_o $end
$var wire 1 > inst4~3_combout $end
$var wire 1 ? inst4~4_combout $end
$var wire 1 @ in0[8]~input_o $end
$var wire 1 A in0[9]~input_o $end
$var wire 1 B in1[9]~input_o $end
$var wire 1 C in1[8]~input_o $end
$var wire 1 D inst4~5_combout $end
$var wire 1 E in0[11]~input_o $end
$var wire 1 F in1[11]~input_o $end
$var wire 1 G in0[10]~input_o $end
$var wire 1 H in1[10]~input_o $end
$var wire 1 I inst2|xor2~combout $end
$var wire 1 J inst4~6_combout $end
$var wire 1 K in0[12]~input_o $end
$var wire 1 L in0[13]~input_o $end
$var wire 1 M in1[13]~input_o $end
$var wire 1 N in1[12]~input_o $end
$var wire 1 O inst4~7_combout $end
$var wire 1 P in0[14]~input_o $end
$var wire 1 Q in0[15]~input_o $end
$var wire 1 R in1[15]~input_o $end
$var wire 1 S in1[14]~input_o $end
$var wire 1 T inst4~8_combout $end
$var wire 1 U inst4~combout $end
$upscope $end
$upscope $end
$enddefinitions $end
#0
$dumpvars
b101010001000 !
b110001010111 "
0#
0$
1%
x&
1'
1(
1)
0*
0+
0,
1-
1.
0/
00
11
02
13
04
05
06
07
18
09
0:
1;
0<
1=
0>
0?
0@
1A
0B
0C
0D
1E
1F
0G
1H
1I
0J
0K
0L
0M
0N
1O
0P
0Q
0R
0S
1T
0U
$end
#100000
b1000101010001000 !
b1010101010001000 !
b1011101010001000 !
b1011001010001000 !
b1011011010001000 !
b1011010010001000 !
b1011010000001000 !
b1011010001001000 !
b1011010001101000 !
b1011010001111000 !
b1011010001110000 !
b1011010001110001 !
b1000110001010111 "
b1100110001010111 "
b1101110001010111 "
b1101111001010111 "
b1101111101010111 "
b1101111111010111 "
b1101111111000111 "
b1101111111000011 "
b1101111111000001 "
b1101111111000000 "
0.
0-
03
08
1<
1C
1B
1N
1S
1R
1+
01
15
16
1:
0;
0A
1G
0E
1K
1L
1Q
14
0O
0T
0I
#200000
b1011010001110101 !
b1101111111001000 "
b11010001110101 !
b1010001110101 !
b10001110101 !
b1110101 !
b1001110101 !
b1011110101 !
b1011010101 !
b1011011101 !
b101111111001000 "
b100111111001000 "
b100111011001000 "
b100111001001000 "
12
0<
0C
0N
0R
10
11
06
1;
1A
0G
0K
0L
0Q
04
1D
1O
1I
#220000
b100001011011101 !
b100001111011101 !
b100001111011111 !
b110111001001000 "
b110111001101000 "
b100101111011111 !
b110111001111000 "
b110111001111100 "
b110111001111110 "
b110111001111111 "
b1100101111011111 !
b1110101111011111 !
b1111101111011111 !
b1111111111011111 !
b1111111111111111 !
b1110111001111111 "
b1111111001111111 "
b1111111101111111 "
b1111111111111111 "
1.
1-
13
18
17
1<
1C
1N
1M
1R
1,
16
1@
1G
1E
1K
1L
1P
1Q
1/
14
19
1>
1T
0I
1?
1J
1U
1*
1#
#280000
b1011111111111111 !
b1011111011111111 !
b1011111011111101 !
b1101111111111111 "
b1101111111011111 "
b1011011011111101 !
b1101111111001111 "
b1101111111001011 "
b1101111111001001 "
b1101111111001000 "
b11011011111101 !
b1011011111101 !
b11011111101 !
b1011111101 !
b1011011101 !
b101111111001000 "
b100111111001000 "
b100111011001000 "
b100111001001000 "
0.
0-
03
08
07
0<
0C
0N
0M
0R
0,
06
0@
0G
0E
0K
0L
0P
0Q
0/
04
09
0>
0T
1I
0J
0?
0U
0*
0#
#300000
b100111000001000 "
b1011001101 !
b1011001100 !
b1011001000 !
b1011000000 !
b110111000001000 "
b101011000000 !
b110111000011000 "
b110111000011100 "
b110111000011101 "
b10101011000000 !
b10111011000000 !
b10111011100000 !
b1110111000011101 "
b1110111100011101 "
0+
00
01
05
16
1G
1E
1L
1.
13
18
0=
1C
1M
1R
0I
0D
#400000
b10111010100000 !
b1010111100011101 "
b1010110100011101 "
b1010110110011101 "
b10111010100001 !
b10111010101001 !
b1010110110001101 "
b10101010101001 !
b10110110001101 "
08
1<
0B
0S
0R
1+
11
0:
0G
1>
1T
1/
1I
#500000
b10010110001101 "
b10010110000101 "
b10100010101001 !
b10100000101001 !
b110100000101001 !
b110100100101001 !
b10010110100101 "
b10010110100111 "
b1110100100101001 !
b1110100100111001 !
b1110000100111001 !
b10010110100011 "
b10010110100010 "
b1110000100011001 !
b10010010100010 "
b1110000101011001 !
b10011010100010 "
b1110000101010001 !
b10011010110010 "
01
15
06
1:
0;
1@
0A
0E
1P
1Q
0.
1-
03
02
18
17
0C
1B
0F
14
0>
0T
0/
#600000
b10001010110010 "
b1110000101010011 !
b1010110010 "
b1100000101010011 !
b1100010101010011 !
b1000001010110010 "
b1000101010110010 "
b1000101010111010 "
b1000101010011010 "
b1000101010011000 "
b1000101010011100 "
b1000101110011100 "
b1000101110001100 "
1,
1G
0L
0-
13
12
08
07
1C
0H
1F
0M
1R
04
#700000
b1001101110001100 "
b1001101111001100 "
b1001101101001100 "
b1100010101010010 !
b1100010111010010 !
b1000010111010010 !
b1000010111000010 !
b1000110111000010 !
b1001101101001101 "
b1000110110000010 !
b1001100101001101 "
b1000110110001010 !
b1000110110001000 !
b1011100101001101 "
b1000100110001000 !
b11100101001101 "
b11100101001111 "
b11100001001111 "
0+
0,
11
05
0:
1;
0G
1E
0P
1.
1-
1=
0<
0C
0B
1N
1M
0R
19
0I
0O
#800000
b1001100110001000 !
b1001100110001100 !
b1100110001100 !
b11100110001100 !
b11000001001111 "
b11000001000111 "
b11100100001100 !
b11100100011100 !
b11100101011100 !
b11100101010100 !
b11100101010110 !
b1000001000111 "
b11110101010110 !
b1000001000101 "
b1000101000101 "
0-
02
1C
0F
0M
1,
10
01
15
1:
0;
1G
1K
1L
0Q
14
1D
09
1>
1I
1T
#900000
b101000101000101 "
b11110001010110 !
b11110001110110 !
b101000101100101 "
b100000101100101 "
b100000100100101 "
b100000110100101 "
b11110001110111 !
b111110001110111 !
b111010001110111 !
b100001110100101 "
b1100001110100101 "
b111010001110011 !
b1111010001110011 !
b1101010001110011 !
b1100101110100101 "
b1100101110101101 "
b1101010011110011 !
b1101010011100011 !
b1101010011100001 !
b1110101110101101 "
b1101000011100001 !
b1110101010101101 "
1+
0,
00
05
16
1;
0@
0G
0E
0L
1P
1Q
12
17
0=
1<
0C
1B
1F
0N
1M
1S
1R
1/
04
19
0>
0D
0I
