LECI/AC2/ISD/PL/Guiao8/Adder/simulation/qsim/FullAdder.msim.vcd
$comment
	File created using the following command:
		vcd file FullAdder.msim.vcd -direction
$end
$date
	Fri Dec 10 09:26:17 2021
$end
$version
	ModelSim Version 10.5b
$end
$timescale
	1ps
$end

$scope module AddSub4_vlg_vec_tst $end
$var reg 1 ! Add_Sub $end
$var reg 1 " in00 $end
$var reg 1 # in01 $end
$var reg 1 $ in02 $end
$var reg 1 % in03 $end
$var reg 1 & in10 $end
$var reg 1 ' in11 $end
$var reg 1 ( in12 $end
$var reg 1 ) in13 $end
$var wire 1 * overflow $end
$var wire 1 + sum0 $end
$var wire 1 , sum1 $end
$var wire 1 - sum2 $end
$var wire 1 . sum3 $end

$scope module i1 $end
$var wire 1 / gnd $end
$var wire 1 0 vcc $end
$var wire 1 1 unknown $end
$var tri1 1 2 devclrn $end
$var tri1 1 3 devpor $end
$var tri1 1 4 devoe $end
$var wire 1 5 overflow~output_o $end
$var wire 1 6 sum0~output_o $end
$var wire 1 7 sum1~output_o $end
$var wire 1 8 sum2~output_o $end
$var wire 1 9 sum3~output_o $end
$var wire 1 : in03~input_o $end
$var wire 1 ; in13~input_o $end
$var wire 1 < Add_Sub~input_o $end
$var wire 1 = in11~input_o $end
$var wire 1 > in01~input_o $end
$var wire 1 ? in00~input_o $end
$var wire 1 @ in10~input_o $end
$var wire 1 A a0|inst11~combout $end
$var wire 1 B a1|inst3~0_combout $end
$var wire 1 C in12~input_o $end
$var wire 1 D in02~input_o $end
$var wire 1 E a2|inst3~0_combout $end
$var wire 1 F inst4~0_combout $end
$var wire 1 G a0|inst~combout $end
$var wire 1 H a1|inst1~combout $end
$var wire 1 I a2|inst1~0_combout $end
$var wire 1 J a3|inst1~0_combout $end
$upscope $end
$upscope $end
$enddefinitions $end
#0
$dumpvars
0!
0"
1#
1$
0%
1&
0'
1(
1)
0*
1+
1,
0-
0.
0/
10
x1
12
13
14
05
16
17
08
09
0:
1;
0<
0=
1>
0?
1@
0A
0B
1C
1D
1E
0F
1G
1H
0I
0J
$end
#100000
0#
0)
0(
0&
0>
0;
0C
0@
0E
0H
1J
1F
1I
0G
06
18
15
19
07
0,
1.
1*
1-
0+
0J
0F
05
09
0.
0*
#200000
1%
0$
1"
1#
1(
1&
1:
0D
1?
1>
1C
1@
1A
1J
1H
17
19
1B
1.
1,
0H
07
1E
0,
0I
08
0-
0J
09
0.
#300000
1'
0%
0"
0#
0(
0&
1=
0:
0?
0>
0C
0@
0A
0E
1J
1F
1I
18
15
19
0B
1.
1*
1-
1H
0J
0F
05
09
17
1,
0.
0*
0I
08
0-
#400000
1%
1"
1&
1:
1?
1@
1A
1J
19
1B
1.
0H
07
0,
1I
18
1-
#460000
1!
1<
1E
0A
0J
0I
1H
1G
16
17
08
09
0.
0-
1,
1+
1J
1F
0H
07
15
19
1.
1*
0,
#500000
0'
0%
0"
0=
0:
0?
0B
1A
1H
0J
0F
0G
06
05
09
17
0E
1B
1,
0.
0*
0+
1I
0H
07
18
1E
1-
0,
1J
0I
08
19
1.
0-
0J
09
0.
#600000
1)
1$
0&
1;
1D
0@
0E
0A
1J
1I
1G
16
18
19
0B
1.
1-
1+
0J
1F
1H
17
15
09
0.
1*
1,
0I
08
0-
#700000
1(
1"
0)
0$
1C
1?
0;
0D
1E
0G
1J
0F
05
19
06
0+
1.
0*
0J
09
0.
#800000
1#
1'
0(
0"
1)
1>
1=
0C
0?
1;
0E
1I
1G
1J
19
16
18
1-
1+
1.
0J
1F
15
09
0.
1*
#900000
1%
0'
1"
0)
1:
0=
1?
0;
0F
0H
0G
06
07
05
0*
0,
0+
