LECI/LSD/Aula_00/Parte2/simulation/qsim/VHDLDemo.msim.vcd
$comment
	File created using the following command:
		vcd file VHDLDemo.msim.vcd -direction
$end
$date
	Wed Mar 10 11:05:44 2021
$end
$version
	ModelSim Version 10.5b
$end
$timescale
	1ps
$end

$scope module nand2gate_vhd_vec_tst $end
$var wire 1 ! inPort0 $end
$var wire 1 " inPort1 $end
$var wire 1 # outPort $end

$scope module i1 $end
$var wire 1 $ gnd $end
$var wire 1 % vcc $end
$var wire 1 & unknown $end
$var wire 1 ' devoe $end
$var wire 1 ( devclrn $end
$var wire 1 ) devpor $end
$var wire 1 * ww_devoe $end
$var wire 1 + ww_devclrn $end
$var wire 1 , ww_devpor $end
$var wire 1 - ww_inPort0 $end
$var wire 1 . ww_inPort1 $end
$var wire 1 / ww_outPort $end
$var wire 1 0 \outPort~output_o\ $end
$var wire 1 1 \inPort0~input_o\ $end
$var wire 1 2 \inPort1~input_o\ $end
$var wire 1 3 \and_gate|OutPort~combout\ $end
$var wire 1 4 \and_gate|ALT_INV_OutPort~combout\ $end
$upscope $end
$upscope $end
$enddefinitions $end
#0
$dumpvars
1!
1"
0#
0$
1%
x&
1'
1(
1)
1*
1+
1,
1-
1.
0/
00
11
12
13
04
$end
#10000
0"
0.
02
03
14
10
1/
1#
#20000
1"
0!
1.
0-
01
12
#30000
0"
1!
0.
1-
11
02
#40000
1"
1.
12
13
04
00
0/
0#
#50000
0"
0!
0.
0-
01
02
03
14
10
1/
1#
#60000
1"
1.
12
#70000
0"
1!
0.
1-
11
02
#80000
0!
0-
01
#90000
1"
1.
12
#100000
1!
1-
11
13
04
00
0/
0#
#110000
0!
0"
0-
0.
02
01
03
14
10
1/
1#
#120000
1!
1-
11
#130000
0!
1"
0-
1.
12
01
#140000
1!
0"
1-
0.
02
11
#150000
1"
1.
12
13
04
00
0/
0#
#160000
0!
0-
01
03
14
10
1/
1#
#170000
0"
0.
02
#180000
1!
1-
11
#200000
0!
0-
01
#210000
1"
1.
12
#220000
0"
0.
02
#230000
1"
1.
12
#250000
0"
1!
0.
1-
11
02
#260000
1"
1.
12
13
04
00
0/
0#
#280000
0"
0.
02
03
14
10
1/
1#
#300000
1"
1.
12
13
04
00
0/
0#
#310000
0"
0.
02
03
14
10
1/
1#
#320000
1"
0!
1.
0-
01
12
#340000
0"
0.
02
#350000
1"
1!
1.
1-
11
12
13
04
00
0/
0#
#360000
0"
0!
0.
0-
01
02
03
14
10
1/
1#
#370000
1"
1!
1.
1-
11
12
13
04
00
0/
0#
#380000
0"
0.
02
03
14
10
1/
1#
#390000
1"
1.
12
13
04
00
0/
0#
#400000
0"
0.
02
03
14
10
1/
1#
#450000
0!
0-
01
#460000
1!
1"
1-
1.
12
11
13
04
00
0/
0#
#480000
0!
0"
0-
0.
02
01
03
14
10
1/
1#
#490000
1"
1.
12
#500000
1!
1-
11
13
04
00
0/
0#
#510000
0!
0-
01
03
14
10
1/
1#
#520000
1!
0"
1-
0.
02
11
#530000
1"
1.
12
13
04
00
0/
0#
#540000
0"
0!
0.
0-
01
02
03
14
10
1/
1#
#550000
1"
1.
12
#560000
0"
1!
0.
1-
11
02
#570000
0!
0-
01
#580000
1"
1.
12
#590000
0"
1!
0.
1-
11
02
#600000
1"
0!
1.
0-
01
12
#650000
1!
1-
11
13
04
00
0/
0#
#660000
0"
0.
02
03
14
10
1/
1#
#670000
0!
0-
01
#680000
1!
1-
11
#690000
1"
1.
12
13
04
00
0/
0#
#700000
0!
0-
01
03
14
10
1/
1#
#710000
1!
1-
11
13
04
00
0/
0#
#720000
0"
0.
02
03
14
10
1/
1#
#740000
1"
0!
1.
0-
01
12
#750000
1!
1-
11
13
04
00
0/
0#
#760000
0"
0.
02
03
14
10
1/
1#
#770000
1"
0!
1.
0-
01
12
#780000
0"
0.
02
#790000
1!
1-
11
#800000
1"
1.
12
13
04
00
0/
0#
#810000
0!
0-
01
03
14
10
1/
1#
#820000
1!
0"
1-
0.
02
11
#850000
1"
1.
12
13
04
00
0/
0#
#870000
0!
0-
01
03
14
10
1/
1#
#880000
0"
0.
02
#890000
1"
1.
12
#910000
0"
0.
02
#940000
1!
1-
11
#950000
1"
1.
12
13
04
00
0/
0#
#960000
0"
0!
0.
0-
01
02
03
14
10
1/
1#
#980000
1"
1.
12
#990000
0"
0.
02
