LECI/LSD/WSpace/EqCmp/simulation/qsim/EqCmpDemo.msim.vcd
$comment
	File created using the following command:
		vcd file EqCmpDemo.msim.vcd -direction
$end
$date
	Tue Apr 20 17:27:21 2021
$end
$version
	ModelSim Version 10.5b
$end
$timescale
	1ps
$end

$scope module eqcmp4_vhd_vec_tst $end
$var wire 1 ! cmpOut $end
$var wire 1 " inPort0 [3] $end
$var wire 1 # inPort0 [2] $end
$var wire 1 $ inPort0 [1] $end
$var wire 1 % inPort0 [0] $end
$var wire 1 & inPort1 [3] $end
$var wire 1 ' inPort1 [2] $end
$var wire 1 ( inPort1 [1] $end
$var wire 1 ) inPort1 [0] $end

$scope module i1 $end
$var wire 1 * gnd $end
$var wire 1 + vcc $end
$var wire 1 , unknown $end
$var wire 1 - devoe $end
$var wire 1 . devclrn $end
$var wire 1 / devpor $end
$var wire 1 0 ww_devoe $end
$var wire 1 1 ww_devclrn $end
$var wire 1 2 ww_devpor $end
$var wire 1 3 ww_inPort0 [3] $end
$var wire 1 4 ww_inPort0 [2] $end
$var wire 1 5 ww_inPort0 [1] $end
$var wire 1 6 ww_inPort0 [0] $end
$var wire 1 7 ww_inPort1 [3] $end
$var wire 1 8 ww_inPort1 [2] $end
$var wire 1 9 ww_inPort1 [1] $end
$var wire 1 : ww_inPort1 [0] $end
$var wire 1 ; ww_cmpOut $end
$var wire 1 < \cmpOut~output_o\ $end
$var wire 1 = \inPort0[0]~input_o\ $end
$var wire 1 > \inPort0[1]~input_o\ $end
$var wire 1 ? \inPort1[1]~input_o\ $end
$var wire 1 @ \inPort1[0]~input_o\ $end
$var wire 1 A \Equal0~0_combout\ $end
$var wire 1 B \inPort0[2]~input_o\ $end
$var wire 1 C \inPort0[3]~input_o\ $end
$var wire 1 D \inPort1[3]~input_o\ $end
$var wire 1 E \inPort1[2]~input_o\ $end
$var wire 1 F \Equal0~1_combout\ $end
$var wire 1 G \Equal0~2_combout\ $end
$upscope $end
$upscope $end
$enddefinitions $end
#0
$dumpvars
0!
0*
1+
x,
1-
1.
1/
10
11
12
0;
0<
0=
0>
0?
0@
1A
1B
0C
0D
0E
0F
0G
0"
1#
0$
0%
0&
0'
0(
0)
03
14
05
06
07
08
09
0:
$end
#40000
1"
1&
1(
1)
13
1:
19
17
1D
1?
1@
1C
0A
#80000
0&
0)
1$
1%
0:
07
16
15
1>
1=
0D
0@
#120000
1)
0%
0(
1:
09
06
0=
0?
1@
#160000
1&
0#
17
04
0B
1D
1F
#200000
0&
1#
1%
0$
0"
1'
18
07
16
05
14
03
0C
1B
0>
1=
0D
1E
1A
1G
1<
1;
1!
#240000
1&
0%
1"
1(
19
17
06
13
1C
0=
1D
1?
0A
0G
0<
0;
0!
#280000
0&
0"
0(
1$
0)
0:
09
07
15
03
0C
1>
0D
0?
0@
#320000
0$
1)
1%
0#
16
05
04
1:
1@
0B
0>
1=
0F
1A
#360000
1$
0)
0%
1&
1"
0'
06
15
13
0:
08
17
1D
0E
0@
1C
1>
0=
0A
1F
#400000
1)
0"
1'
1#
1(
1:
19
18
14
03
0C
1B
1E
1?
1@
0F
#440000
1"
0'
0#
04
13
08
0E
1C
0B
1F
#480000
0"
1'
1#
0)
0(
0$
05
14
03
0:
09
18
1E
0?
0@
0C
1B
0>
1A
0F
#520000
0'
1)
1:
08
0E
1@
0A
#560000
0#
1(
0&
04
19
07
0D
1?
0B
1F
#600000
1"
13
1C
0F
#640000
1#
1&
0)
1$
1%
16
15
14
0:
17
1D
0@
1B
1>
1=
#680000
0$
0"
0(
05
03
09
0?
0C
0>
#720000
1"
1(
0&
1)
1'
13
1:
19
18
07
0D
1E
1?
1@
1C
#760000
0'
0%
08
06
0=
0E
#800000
1%
1&
0)
0#
16
04
0:
17
1D
0@
0B
1=
1F
#840000
0%
0&
1'
1$
06
15
18
07
0D
1E
1>
0=
1A
0F
#880000
1%
1#
16
14
1B
1=
0A
#920000
0#
1&
0'
0"
04
03
08
17
1D
0E
0C
0B
#960000
1#
1'
1"
0$
05
14
13
18
1E
1C
1B
0>
1F
