ISD/Teste2/103944/FSM/simulation/qsim/FSM.msim.vcd
$comment
	File created using the following command:
		vcd file FSM.msim.vcd -direction
$end
$date
	Wed Jan 26 10:39:44 2022
$end
$version
	ModelSim Version 10.5b
$end
$timescale
	1ps
$end

$scope module FSM_vlg_vec_tst $end
$var reg 1 ! CK $end
$var reg 1 " RESET_H $end
$var reg 1 # X $end
$var wire 1 $ Q0 $end
$var wire 1 % Q1 $end
$var wire 1 & Y $end

$scope module i1 $end
$var wire 1 ' gnd $end
$var wire 1 ( vcc $end
$var wire 1 ) unknown $end
$var tri1 1 * devclrn $end
$var tri1 1 + devpor $end
$var tri1 1 , devoe $end
$var wire 1 - Y~output_o $end
$var wire 1 . Q1~output_o $end
$var wire 1 / Q0~output_o $end
$var wire 1 0 CK~input_o $end
$var wire 1 1 CK~inputclkctrl_outclk $end
$var wire 1 2 X~input_o $end
$var wire 1 3 inst3~combout $end
$var wire 1 4 RESET_H~input_o $end
$var wire 1 5 RESET_H~inputclkctrl_outclk $end
$var wire 1 6 inst~q $end
$var wire 1 7 inst6~0_combout $end
$var wire 1 8 inst1~q $end
$var wire 1 9 inst13~combout $end
$upscope $end
$upscope $end
$enddefinitions $end
#0
$dumpvars
0!
1"
1#
0$
0%
0&
0'
1(
x)
1*
1+
1,
0-
0.
0/
00
01
12
13
14
15
06
07
08
09
$end
#25000
1!
10
11
16
1.
1%
03
#50000
0!
00
01
#55000
0#
02
#75000
1!
10
11
06
0.
0%
17
#100000
0!
00
01
#125000
1!
10
11
18
1/
1$
07
13
#150000
0!
00
01
#165000
1#
12
19
17
03
1-
1&
#175000
1!
10
11
#200000
0!
00
01
#225000
1!
10
11
#250000
0!
00
01
#275000
1!
10
11
#300000
0!
00
01
#325000
1!
10
11
#330000
0#
02
09
07
13
0-
0&
#350000
0!
00
01
#375000
1!
10
11
08
16
1.
0/
0$
1%
03
#385000
1#
12
#400000
0!
00
01
#425000
1!
10
11
06
0.
0%
13
#450000
0!
00
01
#475000
1!
10
11
16
1.
1%
03
#500000
0!
00
01
#525000
1!
10
11
06
0.
0%
13
#550000
0#
0!
02
00
01
17
03
#575000
1!
10
11
18
1/
1$
07
13
#580000
0"
04
05
08
0/
0$
17
03
#600000
0!
00
01
#625000
1!
10
11
#650000
0!
00
01
#660000
1#
12
07
13
#675000
1!
10
11
#700000
0!
00
01
#715000
0#
02
17
03
#725000
1!
10
11
#750000
0!
00
01
#775000
1!
10
11
#800000
0!
00
01
#825000
1!
10
11
#850000
0!
00
01
#875000
1!
10
11
#880000
1#
12
07
13
#900000
0!
00
01
#925000
1!
10
11
#950000
0!
00
01
#975000
1!
10
11
