LSD/Aula_00/Parte3/simulation/qsim/LogicDemo.msim.vcd
$comment
	File created using the following command:
		vcd file LogicDemo.msim.vcd -direction
$end
$date
	Wed Mar 10 11:31:16 2021
$end
$version
	ModelSim Version 10.5b
$end
$timescale
	1ps
$end

$scope module logictop_vhd_vec_tst $end
$var wire 1 ! LEDG [5] $end
$var wire 1 " LEDG [4] $end
$var wire 1 # LEDG [3] $end
$var wire 1 $ LEDG [2] $end
$var wire 1 % LEDG [1] $end
$var wire 1 & LEDG [0] $end
$var wire 1 ' SW [1] $end
$var wire 1 ( SW [0] $end

$scope module i1 $end
$var wire 1 ) gnd $end
$var wire 1 * vcc $end
$var wire 1 + unknown $end
$var wire 1 , devoe $end
$var wire 1 - devclrn $end
$var wire 1 . devpor $end
$var wire 1 / ww_devoe $end
$var wire 1 0 ww_devclrn $end
$var wire 1 1 ww_devpor $end
$var wire 1 2 ww_LEDG [5] $end
$var wire 1 3 ww_LEDG [4] $end
$var wire 1 4 ww_LEDG [3] $end
$var wire 1 5 ww_LEDG [2] $end
$var wire 1 6 ww_LEDG [1] $end
$var wire 1 7 ww_LEDG [0] $end
$var wire 1 8 ww_SW [1] $end
$var wire 1 9 ww_SW [0] $end
$var wire 1 : \LEDG[5]~output_o\ $end
$var wire 1 ; \LEDG[4]~output_o\ $end
$var wire 1 < \LEDG[3]~output_o\ $end
$var wire 1 = \LEDG[2]~output_o\ $end
$var wire 1 > \LEDG[1]~output_o\ $end
$var wire 1 ? \LEDG[0]~output_o\ $end
$var wire 1 @ \SW[1]~input_o\ $end
$var wire 1 A \SW[0]~input_o\ $end
$var wire 1 B \inst|norOut~0_combout\ $end
$var wire 1 C \inst|nandOut~0_combout\ $end
$var wire 1 D \inst|xorOut~combout\ $end
$var wire 1 E \inst|ALT_INV_nandOut~0_combout\ $end
$var wire 1 F \ALT_INV_SW[0]~input_o\ $end
$var wire 1 G \inst|ALT_INV_norOut~0_combout\ $end
$upscope $end
$upscope $end
$enddefinitions $end
#0
$dumpvars
0)
1*
x+
1,
1-
1.
1/
10
11
0:
1;
1<
1=
0>
1?
1@
0A
1B
0C
1D
1E
1F
0G
1'
0(
02
13
14
15
06
17
18
09
0!
1"
1#
1$
0%
1&
$end
#10000
1(
19
1A
0F
1C
0D
0E
0?
0<
1>
07
0;
04
16
0&
03
1%
0#
0"
#20000
0'
08
0@
0C
1D
1E
1<
0>
1;
14
06
13
0%
1#
1"
#50000
0(
09
0A
1F
0B
0D
1G
1?
0<
0=
17
1:
04
05
1&
12
0$
0#
1!
#60000
1(
1'
19
18
1@
1A
0F
1B
1C
0E
0G
0?
1>
1=
07
0:
0;
16
15
0&
02
03
1%
1$
0"
0!
#70000
0'
08
0@
0C
1D
1E
1<
0>
1;
14
06
13
0%
1#
1"
#80000
1'
18
1@
1C
0D
0E
0<
1>
0;
04
16
03
1%
0#
0"
#120000
0'
08
0@
0C
1D
1E
1<
0>
1;
14
06
13
0%
1#
1"
#130000
1'
0(
09
18
1@
0A
1F
1?
17
1&
#140000
0'
1(
19
08
0@
1A
0F
0?
07
0&
#170000
1'
18
1@
1C
0D
0E
0<
1>
0;
04
16
03
1%
0#
0"
#190000
0'
08
0@
0C
1D
1E
1<
0>
1;
14
06
13
0%
1#
1"
#200000
0(
09
0A
1F
0B
0D
1G
1?
0<
0=
17
1:
04
05
1&
12
0$
0#
1!
#210000
1(
19
1A
0F
1B
1D
0G
0?
1<
1=
07
0:
14
15
0&
02
1$
1#
0!
#220000
1'
18
1@
1C
0D
0E
0<
1>
0;
04
16
03
1%
0#
0"
#230000
0(
09
0A
1F
0C
1D
1E
1?
1<
0>
17
1;
14
06
1&
13
0%
1#
1"
#240000
1(
19
1A
0F
1C
0D
0E
0?
0<
1>
07
0;
04
16
0&
03
1%
0#
0"
#250000
0(
0'
09
08
0@
0A
1F
0B
0C
1E
1G
1?
0>
0=
17
1:
1;
06
05
1&
12
13
0%
0$
1"
1!
#260000
1(
1'
19
18
1@
1A
0F
1B
1C
0E
0G
0?
1>
1=
07
0:
0;
16
15
0&
02
03
1%
1$
0"
0!
#290000
0'
08
0@
0C
1D
1E
1<
0>
1;
14
06
13
0%
1#
1"
#300000
1'
0(
09
18
1@
0A
1F
1?
17
1&
#310000
0'
08
0@
0B
0D
1G
0<
0=
1:
04
05
12
0$
0#
1!
#320000
1(
19
1A
0F
1B
1D
0G
0?
1<
1=
07
0:
14
15
0&
02
1$
1#
0!
#330000
0(
09
0A
1F
0B
0D
1G
1?
0<
0=
17
1:
04
05
1&
12
0$
0#
1!
#340000
1(
19
1A
0F
1B
1D
0G
0?
1<
1=
07
0:
14
15
0&
02
1$
1#
0!
#350000
0(
09
0A
1F
0B
0D
1G
1?
0<
0=
17
1:
04
05
1&
12
0$
0#
1!
#360000
1(
19
1A
0F
1B
1D
0G
0?
1<
1=
07
0:
14
15
0&
02
1$
1#
0!
#390000
0(
1'
09
18
1@
0A
1F
1?
17
1&
#400000
0'
08
0@
0B
0D
1G
0<
0=
1:
04
05
12
0$
0#
1!
#410000
1'
18
1@
1B
1D
0G
1<
1=
0:
14
15
02
1$
1#
0!
#420000
0'
08
0@
0B
0D
1G
0<
0=
1:
04
05
12
0$
0#
1!
#440000
1'
1(
19
18
1@
1A
0F
1B
1C
0E
0G
0?
1>
1=
07
0:
0;
16
15
0&
02
03
1%
1$
0"
0!
#450000
0'
08
0@
0C
1D
1E
1<
0>
1;
14
06
13
0%
1#
1"
#460000
0(
09
0A
1F
0B
0D
1G
1?
0<
0=
17
1:
04
05
1&
12
0$
0#
1!
#470000
1(
19
1A
0F
1B
1D
0G
0?
1<
1=
07
0:
14
15
0&
02
1$
1#
0!
#490000
0(
1'
09
18
1@
0A
1F
1?
17
1&
#520000
1(
0'
19
08
0@
1A
0F
0?
07
0&
#530000
0(
09
0A
1F
0B
0D
1G
1?
0<
0=
17
1:
04
05
1&
12
0$
0#
1!
#540000
1(
19
1A
0F
1B
1D
0G
0?
1<
1=
07
0:
14
15
0&
02
1$
1#
0!
#550000
0(
1'
09
18
1@
0A
1F
1?
17
1&
#560000
1(
19
1A
0F
1C
0D
0E
0?
0<
1>
07
0;
04
16
0&
03
1%
0#
0"
#570000
0(
09
0A
1F
0C
1D
1E
1?
1<
0>
17
1;
14
06
1&
13
0%
1#
1"
#580000
0'
08
0@
0B
0D
1G
0<
0=
1:
04
05
12
0$
0#
1!
#600000
1'
18
1@
1B
1D
0G
1<
1=
0:
14
15
02
1$
1#
0!
#610000
1(
19
1A
0F
1C
0D
0E
0?
0<
1>
07
0;
04
16
0&
03
1%
0#
0"
#620000
0(
0'
09
08
0@
0A
1F
0B
0C
1E
1G
1?
0>
0=
17
1:
1;
06
05
1&
12
13
0%
0$
1"
1!
#630000
1(
19
1A
0F
1B
1D
0G
0?
1<
1=
07
0:
14
15
0&
02
1$
1#
0!
#640000
1'
18
1@
1C
0D
0E
0<
1>
0;
04
16
03
1%
0#
0"
#650000
0'
08
0@
0C
1D
1E
1<
0>
1;
14
06
13
0%
1#
1"
#660000
0(
09
0A
1F
0B
0D
1G
1?
0<
0=
17
1:
04
05
1&
12
0$
0#
1!
#670000
1'
18
1@
1B
1D
0G
1<
1=
0:
14
15
02
1$
1#
0!
#680000
0'
08
0@
0B
0D
1G
0<
0=
1:
04
05
12
0$
0#
1!
#690000
1'
18
1@
1B
1D
0G
1<
1=
0:
14
15
02
1$
1#
0!
#700000
1(
19
1A
0F
1C
0D
0E
0?
0<
1>
07
0;
04
16
0&
03
1%
0#
0"
#710000
0(
0'
09
08
0@
0A
1F
0B
0C
1E
1G
1?
0>
0=
17
1:
1;
06
05
1&
12
13
0%
0$
1"
1!
#730000
1(
19
1A
0F
1B
1D
0G
0?
1<
1=
07
0:
14
15
0&
02
1$
1#
0!
#740000
0(
09
0A
1F
0B
0D
1G
1?
0<
0=
17
1:
04
05
1&
12
0$
0#
1!
#750000
1(
1'
19
18
1@
1A
0F
1B
1C
0E
0G
0?
1>
1=
07
0:
0;
16
15
0&
02
03
1%
1$
0"
0!
#760000
0(
0'
09
08
0@
0A
1F
0B
0C
1E
1G
1?
0>
0=
17
1:
1;
06
05
1&
12
13
0%
0$
1"
1!
#790000
1(
1'
19
18
1@
1A
0F
1B
1C
0E
0G
0?
1>
1=
07
0:
0;
16
15
0&
02
03
1%
1$
0"
0!
#800000
0(
0'
09
08
0@
0A
1F
0B
0C
1E
1G
1?
0>
0=
17
1:
1;
06
05
1&
12
13
0%
0$
1"
1!
#810000
1(
19
1A
0F
1B
1D
0G
0?
1<
1=
07
0:
14
15
0&
02
1$
1#
0!
#830000
1'
18
1@
1C
0D
0E
0<
1>
0;
04
16
03
1%
0#
0"
#840000
0'
0(
09
08
0@
0A
1F
0B
0C
1E
1G
1?
0>
0=
17
1:
1;
06
05
1&
12
13
0%
0$
1"
1!
#850000
1'
18
1@
1B
1D
0G
1<
1=
0:
14
15
02
1$
1#
0!
#860000
1(
19
1A
0F
1C
0D
0E
0?
0<
1>
07
0;
04
16
0&
03
1%
0#
0"
#890000
0'
08
0@
0C
1D
1E
1<
0>
1;
14
06
13
0%
1#
1"
#920000
1'
18
1@
1C
0D
0E
0<
1>
0;
04
16
03
1%
0#
0"
#930000
0(
09
0A
1F
0C
1D
1E
1?
1<
0>
17
1;
14
06
1&
13
0%
1#
1"
#950000
0'
08
0@
0B
0D
1G
0<
0=
1:
04
05
12
0$
0#
1!
#980000
1'
1(
19
18
1@
1A
0F
1B
1C
0E
0G
0?
1>
1=
07
0:
0;
16
15
0&
02
03
1%
1$
0"
0!
#990000
0'
0(
09
08
0@
0A
1F
0B
0C
1E
1G
1?
0>
0=
17
1:
1;
06
05
1&
12
13
0%
0$
1"
1!
