LSD/WSpace/Timer5/simulation/qsim/Timer5Demo.msim.vcd
$comment
	File created using the following command:
		vcd file Timer5Demo.msim.vcd -direction
$end
$date
	Fri Jun 18 18:15:37 2021
$end
$version
	ModelSim Version 10.5b
$end
$timescale
	1ps
$end

$scope module timerauxfsm_vhd_vec_tst $end
$var wire 1 ! clk $end
$var wire 1 " enable $end
$var wire 1 # newTime $end
$var wire 1 $ reset $end
$var wire 1 % timeExp $end
$var wire 1 & timeVal [3] $end
$var wire 1 ' timeVal [2] $end
$var wire 1 ( timeVal [1] $end
$var wire 1 ) timeVal [0] $end

$scope module i1 $end
$var wire 1 * gnd $end
$var wire 1 + vcc $end
$var wire 1 , unknown $end
$var wire 1 - devoe $end
$var wire 1 . devclrn $end
$var wire 1 / devpor $end
$var wire 1 0 ww_devoe $end
$var wire 1 1 ww_devclrn $end
$var wire 1 2 ww_devpor $end
$var wire 1 3 ww_reset $end
$var wire 1 4 ww_clk $end
$var wire 1 5 ww_newTime $end
$var wire 1 6 ww_enable $end
$var wire 1 7 ww_timeVal [3] $end
$var wire 1 8 ww_timeVal [2] $end
$var wire 1 9 ww_timeVal [1] $end
$var wire 1 : ww_timeVal [0] $end
$var wire 1 ; ww_timeExp $end
$var wire 1 < \timeExp~output_o\ $end
$var wire 1 = \clk~input_o\ $end
$var wire 1 > \newTime~input_o\ $end
$var wire 1 ? \reset~input_o\ $end
$var wire 1 @ \timeVal[2]~input_o\ $end
$var wire 1 A \timeVal[0]~input_o\ $end
$var wire 1 B \timeVal[1]~input_o\ $end
$var wire 1 C \s_counter~4_combout\ $end
$var wire 1 D \timeVal[3]~input_o\ $end
$var wire 1 E \s_counter~5_combout\ $end
$var wire 1 F \Add1~0_combout\ $end
$var wire 1 G \s_counter[0]~0_combout\ $end
$var wire 1 H \enable~input_o\ $end
$var wire 1 I \s_counter[0]~7_combout\ $end
$var wire 1 J \Add1~1\ $end
$var wire 1 K \Add1~2_combout\ $end
$var wire 1 L \Add0~0_combout\ $end
$var wire 1 M \s_counter[1]~1_combout\ $end
$var wire 1 N \Add1~3\ $end
$var wire 1 O \Add1~4_combout\ $end
$var wire 1 P \Add0~1_combout\ $end
$var wire 1 Q \s_counter[2]~2_combout\ $end
$var wire 1 R \Add1~5\ $end
$var wire 1 S \Add1~6_combout\ $end
$var wire 1 T \Add0~2_combout\ $end
$var wire 1 U \s_counter[3]~3_combout\ $end
$var wire 1 V \Add1~7\ $end
$var wire 1 W \Add1~8_combout\ $end
$var wire 1 X \s_counter~6_combout\ $end
$var wire 1 Y \Add1~9\ $end
$var wire 1 Z \Add1~10_combout\ $end
$var wire 1 [ \s_counter~8_combout\ $end
$var wire 1 \ \Add1~11\ $end
$var wire 1 ] \Add1~12_combout\ $end
$var wire 1 ^ \s_counter~9_combout\ $end
$var wire 1 _ \Add1~13\ $end
$var wire 1 ` \Add1~14_combout\ $end
$var wire 1 a \s_counter~10_combout\ $end
$var wire 1 b \s_cntZero~0_combout\ $end
$var wire 1 c \Add1~15\ $end
$var wire 1 d \Add1~16_combout\ $end
$var wire 1 e \s_counter~11_combout\ $end
$var wire 1 f \Add1~17\ $end
$var wire 1 g \Add1~18_combout\ $end
$var wire 1 h \s_counter~12_combout\ $end
$var wire 1 i \Add1~19\ $end
$var wire 1 j \Add1~20_combout\ $end
$var wire 1 k \s_counter~13_combout\ $end
$var wire 1 l \Add1~21\ $end
$var wire 1 m \Add1~22_combout\ $end
$var wire 1 n \s_counter~14_combout\ $end
$var wire 1 o \s_cntZero~1_combout\ $end
$var wire 1 p \Add1~23\ $end
$var wire 1 q \Add1~24_combout\ $end
$var wire 1 r \s_counter~15_combout\ $end
$var wire 1 s \Add1~25\ $end
$var wire 1 t \Add1~26_combout\ $end
$var wire 1 u \s_counter~16_combout\ $end
$var wire 1 v \Add1~27\ $end
$var wire 1 w \Add1~28_combout\ $end
$var wire 1 x \s_counter~17_combout\ $end
$var wire 1 y \Add1~29\ $end
$var wire 1 z \Add1~30_combout\ $end
$var wire 1 { \s_counter~18_combout\ $end
$var wire 1 | \s_cntZero~2_combout\ $end
$var wire 1 } \Add1~31\ $end
$var wire 1 ~ \Add1~32_combout\ $end
$var wire 1 !! \s_counter~19_combout\ $end
$var wire 1 "! \Add1~33\ $end
$var wire 1 #! \Add1~34_combout\ $end
$var wire 1 $! \s_counter~20_combout\ $end
$var wire 1 %! \Add1~35\ $end
$var wire 1 &! \Add1~36_combout\ $end
$var wire 1 '! \s_counter~21_combout\ $end
$var wire 1 (! \Add1~37\ $end
$var wire 1 )! \Add1~38_combout\ $end
$var wire 1 *! \s_counter~22_combout\ $end
$var wire 1 +! \s_cntZero~3_combout\ $end
$var wire 1 ,! \s_cntZero~4_combout\ $end
$var wire 1 -! \Add1~39\ $end
$var wire 1 .! \Add1~40_combout\ $end
$var wire 1 /! \s_counter~23_combout\ $end
$var wire 1 0! \Add1~41\ $end
$var wire 1 1! \Add1~42_combout\ $end
$var wire 1 2! \s_counter~24_combout\ $end
$var wire 1 3! \Add1~43\ $end
$var wire 1 4! \Add1~44_combout\ $end
$var wire 1 5! \s_counter~25_combout\ $end
$var wire 1 6! \Add1~45\ $end
$var wire 1 7! \Add1~46_combout\ $end
$var wire 1 8! \s_counter~26_combout\ $end
$var wire 1 9! \s_cntZero~5_combout\ $end
$var wire 1 :! \Add1~47\ $end
$var wire 1 ;! \Add1~48_combout\ $end
$var wire 1 <! \s_counter~27_combout\ $end
$var wire 1 =! \Add1~49\ $end
$var wire 1 >! \Add1~50_combout\ $end
$var wire 1 ?! \s_counter~28_combout\ $end
$var wire 1 @! \s_cntZero~6_combout\ $end
$var wire 1 A! \Add1~51\ $end
$var wire 1 B! \Add1~52_combout\ $end
$var wire 1 C! \s_counter~29_combout\ $end
$var wire 1 D! \Add1~53\ $end
$var wire 1 E! \Add1~54_combout\ $end
$var wire 1 F! \s_counter~30_combout\ $end
$var wire 1 G! \s_cntZero~7_combout\ $end
$var wire 1 H! \Add1~55\ $end
$var wire 1 I! \Add1~56_combout\ $end
$var wire 1 J! \s_counter~31_combout\ $end
$var wire 1 K! \Add1~57\ $end
$var wire 1 L! \Add1~58_combout\ $end
$var wire 1 M! \s_counter~32_combout\ $end
$var wire 1 N! \Add1~59\ $end
$var wire 1 O! \Add1~60_combout\ $end
$var wire 1 P! \s_counter~33_combout\ $end
$var wire 1 Q! \s_cntZero~8_combout\ $end
$var wire 1 R! \s_cntZero~9_combout\ $end
$var wire 1 S! \s_cntZero~10_combout\ $end
$var wire 1 T! \s_cntZero~11_combout\ $end
$var wire 1 U! \s_cntZero~q\ $end
$var wire 1 V! s_counter [30] $end
$var wire 1 W! s_counter [29] $end
$var wire 1 X! s_counter [28] $end
$var wire 1 Y! s_counter [27] $end
$var wire 1 Z! s_counter [26] $end
$var wire 1 [! s_counter [25] $end
$var wire 1 \! s_counter [24] $end
$var wire 1 ]! s_counter [23] $end
$var wire 1 ^! s_counter [22] $end
$var wire 1 _! s_counter [21] $end
$var wire 1 `! s_counter [20] $end
$var wire 1 a! s_counter [19] $end
$var wire 1 b! s_counter [18] $end
$var wire 1 c! s_counter [17] $end
$var wire 1 d! s_counter [16] $end
$var wire 1 e! s_counter [15] $end
$var wire 1 f! s_counter [14] $end
$var wire 1 g! s_counter [13] $end
$var wire 1 h! s_counter [12] $end
$var wire 1 i! s_counter [11] $end
$var wire 1 j! s_counter [10] $end
$var wire 1 k! s_counter [9] $end
$var wire 1 l! s_counter [8] $end
$var wire 1 m! s_counter [7] $end
$var wire 1 n! s_counter [6] $end
$var wire 1 o! s_counter [5] $end
$var wire 1 p! s_counter [4] $end
$var wire 1 q! s_counter [3] $end
$var wire 1 r! s_counter [2] $end
$var wire 1 s! s_counter [1] $end
$var wire 1 t! s_counter [0] $end
$upscope $end
$upscope $end
$enddefinitions $end
#0
$dumpvars
0!
1"
1#
0$
0%
0*
1+
x,
1-
1.
1/
10
11
12
03
04
15
16
0;
0<
0=
1>
0?
0@
1A
0B
0C
0D
0E
1F
0G
1H
1I
0J
1K
1L
0M
1N
1O
1P
0Q
0R
1S
1T
0U
1V
1W
0X
0Y
1Z
0[
1\
1]
0^
0_
1`
0a
1b
1c
1d
0e
0f
1g
0h
1i
1j
0k
0l
1m
0n
1o
1p
1q
0r
0s
1t
0u
1v
1w
0x
0y
1z
0{
1|
1}
1~
0!!
0"!
1#!
0$!
1%!
1&!
0'!
0(!
1)!
0*!
1+!
1,!
1-!
1.!
0/!
00!
11!
02!
13!
14!
05!
06!
17!
08!
19!
1:!
1;!
0<!
0=!
1>!
0?!
1@!
1A!
1B!
0C!
0D!
1E!
0F!
1G!
1H!
1I!
0J!
0K!
1L!
0M!
1N!
1O!
0P!
0Q!
1R!
0S!
0T!
0U!
0&
0'
0(
1)
07
08
09
1:
0V!
0W!
0X!
0Y!
0Z!
0[!
0\!
0]!
0^!
0_!
0`!
0a!
0b!
0c!
0d!
0e!
0f!
0g!
0h!
0i!
0j!
0k!
0l!
0m!
0n!
0o!
0p!
0q!
0r!
0s!
0t!
$end
#25000
1!
14
1=
#50000
0!
0#
04
05
0>
0=
1G
1M
1Q
1U
1X
1[
1^
1a
1e
1h
1k
1n
1r
1u
1x
1{
1!!
1$!
1'!
1*!
1/!
12!
15!
18!
1<!
1?!
1C!
1F!
1J!
1M!
1P!
1Q!
1S!
0I
1T!
#75000
1!
14
1=
1U!
1<
1;
1%
#100000
0!
04
0=
#125000
1!
14
1=
#150000
0!
04
0=
#175000
1!
14
1=
#200000
0!
04
0=
#225000
1!
14
1=
#250000
0!
04
0=
#275000
1!
14
1=
#300000
0!
04
0=
#325000
1!
14
1=
#350000
0!
04
0=
#375000
1!
14
1=
#400000
0!
04
0=
#425000
1!
14
1=
#450000
0!
04
0=
#475000
1!
14
1=
#500000
0!
04
0=
#525000
1!
14
1=
#550000
0!
04
0=
#575000
1!
14
1=
#600000
0!
04
0=
#625000
1!
14
1=
#650000
0!
04
0=
#675000
1!
14
1=
#700000
0!
04
0=
#725000
1!
14
1=
#750000
0!
04
0=
#775000
1!
14
1=
#800000
0!
04
0=
#825000
1!
14
1=
#850000
0!
04
0=
#875000
1!
14
1=
#900000
0!
04
0=
#925000
1!
14
1=
#950000
0!
04
0=
#975000
1!
14
1=
