ISD/PL/Guiao6/Encoder/simulation/qsim/PEnc8_3.msim.vcd
$comment
	File created using the following command:
		vcd file PEnc8_3.msim.vcd -direction
$end
$date
	Tue Dec 14 21:30:47 2021
$end
$version
	ModelSim Version 10.5b
$end
$timescale
	1ps
$end

$scope module PEnc8_3_T_vlg_vec_tst $end
$var reg 1 ! En0 $end
$var reg 8 " x [7:0] $end
$var wire 1 # OS $end
$var wire 1 $ y0 $end
$var wire 1 % y1 $end
$var wire 1 & y2 $end

$scope module i1 $end
$var wire 1 ' gnd $end
$var wire 1 ( vcc $end
$var wire 1 ) unknown $end
$var tri1 1 * devclrn $end
$var tri1 1 + devpor $end
$var tri1 1 , devoe $end
$var wire 1 - OS~output_o $end
$var wire 1 . y2~output_o $end
$var wire 1 / y0~output_o $end
$var wire 1 0 y1~output_o $end
$var wire 1 1 x[1]~input_o $end
$var wire 1 2 x[3]~input_o $end
$var wire 1 3 x[0]~input_o $end
$var wire 1 4 x[2]~input_o $end
$var wire 1 5 inst1|inst6~0_combout $end
$var wire 1 6 x[4]~input_o $end
$var wire 1 7 x[5]~input_o $end
$var wire 1 8 x[7]~input_o $end
$var wire 1 9 x[6]~input_o $end
$var wire 1 : inst|inst6~0_combout $end
$var wire 1 ; inst6~combout $end
$var wire 1 < En0~input_o $end
$var wire 1 = inst8~0_combout $end
$var wire 1 > inst8~1_combout $end
$var wire 1 ? inst7~0_combout $end
$var wire 1 @ inst7~combout $end
$upscope $end
$upscope $end
$enddefinitions $end
#0
$dumpvars
0!
b10110111 "
1#
0$
1%
1&
0'
1(
x)
1*
1+
1,
1-
1.
0/
10
11
02
13
14
05
16
17
18
09
0:
0;
0<
0=
0>
0?
0@
$end
#50000
b10010111 "
b10000111 "
b10001111 "
b10001011 "
b10001001 "
01
04
12
06
07
1=
1>
1/
1$
#100000
b1001 "
b1000 "
b101000 "
b111000 "
b111100 "
b111110 "
03
11
14
16
17
08
1?
1@
00
0%
#150000
b1111110 "
b1111100 "
01
19
0?
0>
0/
0@
0$
10
1%
#200000
b11111100 "
b11111101 "
b11011101 "
b10011101 "
13
07
09
18
1>
1/
1$
#250000
b10011001 "
b10011011 "
b11011 "
b11010 "
03
11
04
08
1?
0>
0/
1@
0$
00
0%
#300000
b111010 "
b1111010 "
b1111000 "
b11111000 "
01
17
19
18
1:
0?
1>
1/
0.
1;
0@
0&
1$
10
0-
0#
1%
#350000
b11110000 "
b11110001 "
b11110011 "
13
11
02
1?
1@
00
0%
#400000
b11110111 "
b11010111 "
b1010111 "
b1011111 "
b1011101 "
01
14
12
07
08
0?
0:
0>
0/
1.
0@
0;
1&
0$
1-
10
1%
1#
#450000
b11101 "
b111101 "
b111111 "
11
17
09
15
1?
1>
1/
1;
1@
1$
00
0-
0#
0%
#500000
b101111 "
b101110 "
b101010 "
b100010 "
b10 "
b0 "
03
01
04
02
06
07
05
0=
0>
0/
0;
0$
1-
1#
#550000
1!
b10000000 "
b11000000 "
b11000001 "
b11001001 "
b11101001 "
1<
13
12
17
19
18
0?
#600000
b11101101 "
b1101101 "
b101101 "
b100101 "
b101 "
14
02
07
09
08
1?
#650000
b10101 "
b10100 "
b10000 "
b110000 "
03
04
16
17
#700000
b110010 "
b10110010 "
b11110010 "
b11100010 "
b11100011 "
b11100111 "
13
11
14
06
19
18
0?
#750000
b11000111 "
b11000101 "
b1000101 "
b1000001 "
01
04
07
08
1?
#800000
b1 "
b10001 "
b10000 "
b110000 "
b10110000 "
b10110100 "
03
14
16
17
09
18
0?
#850000
b10110110 "
b11110110 "
b11100110 "
b11100111 "
b1100111 "
b1100011 "
13
11
04
06
19
08
1?
#900000
b1100010 "
b1100110 "
03
14
0?
#950000
b1101110 "
b1001110 "
b1001100 "
b1100 "
b11100 "
01
12
16
07
09
1?
