LECI/ISD/PL/Guiao5/ANDgate/simulation/qsim/ANDgate.msim.vcd
$comment
	File created using the following command:
		vcd file ANDgate.msim.vcd -direction
$end
$date
	Fri Nov 12 10:04:55 2021
$end
$version
	ModelSim Version 10.5b
$end
$timescale
	1ps
$end

$scope module ANDgate_vlg_vec_tst $end
$var reg 1 ! in0 $end
$var reg 1 " in1 $end
$var wire 1 # out0 $end

$scope module i1 $end
$var wire 1 $ gnd $end
$var wire 1 % vcc $end
$var wire 1 & unknown $end
$var tri1 1 ' devclrn $end
$var tri1 1 ( devpor $end
$var tri1 1 ) devoe $end
$var wire 1 * out0~output_o $end
$var wire 1 + in0~input_o $end
$var wire 1 , in1~input_o $end
$var wire 1 - inst~combout $end
$upscope $end
$upscope $end
$enddefinitions $end
#0
$dumpvars
0!
0"
0#
0$
1%
x&
1'
1(
1)
0*
0+
0,
0-
$end
#100000
1!
1+
#200000
1"
0!
1,
0+
#240000
1!
1+
1-
1*
1#
#300000
0"
0,
0-
0*
0#
#320000
0!
0+
#400000
1!
1+
#500000
1"
0!
1,
0+
#700000
0"
0,
#800000
1"
1,
#900000
1!
0"
1+
0,
