LSD/Aula_03/Parte2/simulation/qsim/ALUDemo.msim.vcd
$comment
	File created using the following command:
		vcd file ALUDemo.msim.vcd -direction
$end
$date
	Wed Apr 07 09:42:47 2021
$end
$version
	ModelSim Version 10.5b
$end
$timescale
	1ps
$end

$scope module aludemo_vhd_vec_tst $end
$var wire 1 ! LEDR [7] $end
$var wire 1 " LEDR [6] $end
$var wire 1 # LEDR [5] $end
$var wire 1 $ LEDR [4] $end
$var wire 1 % LEDR [3] $end
$var wire 1 & LEDR [2] $end
$var wire 1 ' LEDR [1] $end
$var wire 1 ( LEDR [0] $end
$var wire 1 ) SW [10] $end
$var wire 1 * SW [9] $end
$var wire 1 + SW [8] $end
$var wire 1 , SW [7] $end
$var wire 1 - SW [6] $end
$var wire 1 . SW [5] $end
$var wire 1 / SW [4] $end
$var wire 1 0 SW [3] $end
$var wire 1 1 SW [2] $end
$var wire 1 2 SW [1] $end
$var wire 1 3 SW [0] $end

$scope module i1 $end
$var wire 1 4 gnd $end
$var wire 1 5 vcc $end
$var wire 1 6 unknown $end
$var wire 1 7 devoe $end
$var wire 1 8 devclrn $end
$var wire 1 9 devpor $end
$var wire 1 : ww_devoe $end
$var wire 1 ; ww_devclrn $end
$var wire 1 < ww_devpor $end
$var wire 1 = ww_LEDR [7] $end
$var wire 1 > ww_LEDR [6] $end
$var wire 1 ? ww_LEDR [5] $end
$var wire 1 @ ww_LEDR [4] $end
$var wire 1 A ww_LEDR [3] $end
$var wire 1 B ww_LEDR [2] $end
$var wire 1 C ww_LEDR [1] $end
$var wire 1 D ww_LEDR [0] $end
$var wire 1 E ww_SW [10] $end
$var wire 1 F ww_SW [9] $end
$var wire 1 G ww_SW [8] $end
$var wire 1 H ww_SW [7] $end
$var wire 1 I ww_SW [6] $end
$var wire 1 J ww_SW [5] $end
$var wire 1 K ww_SW [4] $end
$var wire 1 L ww_SW [3] $end
$var wire 1 M ww_SW [2] $end
$var wire 1 N ww_SW [1] $end
$var wire 1 O ww_SW [0] $end
$var wire 1 P \LEDR[7]~output_o\ $end
$var wire 1 Q \LEDR[6]~output_o\ $end
$var wire 1 R \LEDR[5]~output_o\ $end
$var wire 1 S \LEDR[4]~output_o\ $end
$var wire 1 T \LEDR[3]~output_o\ $end
$var wire 1 U \LEDR[2]~output_o\ $end
$var wire 1 V \LEDR[1]~output_o\ $end
$var wire 1 W \LEDR[0]~output_o\ $end
$var wire 1 X \SW[8]~input_o\ $end
$var wire 1 Y \SW[9]~input_o\ $end
$var wire 1 Z \SW[7]~input_o\ $end
$var wire 1 [ \SW[3]~input_o\ $end
$var wire 1 \ \inst|Mux0~4_combout\ $end
$var wire 1 ] \SW[2]~input_o\ $end
$var wire 1 ^ \SW[1]~input_o\ $end
$var wire 1 _ \SW[0]~input_o\ $end
$var wire 1 ` \SW[6]~input_o\ $end
$var wire 1 a \inst|Mod0|auto_generated|divider|divider|StageOut[5]~0_combout\ $end
$var wire 1 b \inst|Mod0|auto_generated|divider|divider|StageOut[5]~1_combout\ $end
$var wire 1 c \inst|Mod0|auto_generated|divider|divider|selnose[5]~0_combout\ $end
$var wire 1 d \inst|Mod0|auto_generated|divider|divider|StageOut[4]~2_combout\ $end
$var wire 1 e \SW[5]~input_o\ $end
$var wire 1 f \inst|Mod0|auto_generated|divider|divider|add_sub_2_result_int[0]~1\ $end
$var wire 1 g \inst|Mod0|auto_generated|divider|divider|add_sub_2_result_int[1]~3\ $end
$var wire 1 h \inst|Mod0|auto_generated|divider|divider|add_sub_2_result_int[2]~4_combout\ $end
$var wire 1 i \inst|Mod0|auto_generated|divider|divider|add_sub_2_result_int[2]~5\ $end
$var wire 1 j \inst|Mod0|auto_generated|divider|divider|add_sub_2_result_int[3]~6_combout\ $end
$var wire 1 k \inst|Mod0|auto_generated|divider|divider|StageOut[10]~3_combout\ $end
$var wire 1 l \inst|Mod0|auto_generated|divider|divider|add_sub_2_result_int[1]~2_combout\ $end
$var wire 1 m \inst|Mod0|auto_generated|divider|divider|StageOut[9]~4_combout\ $end
$var wire 1 n \inst|Mod0|auto_generated|divider|divider|add_sub_2_result_int[0]~0_combout\ $end
$var wire 1 o \inst|Mod0|auto_generated|divider|divider|StageOut[8]~5_combout\ $end
$var wire 1 p \SW[4]~input_o\ $end
$var wire 1 q \inst|Mod0|auto_generated|divider|divider|add_sub_3_result_int[0]~1\ $end
$var wire 1 r \inst|Mod0|auto_generated|divider|divider|add_sub_3_result_int[1]~3\ $end
$var wire 1 s \inst|Mod0|auto_generated|divider|divider|add_sub_3_result_int[2]~5\ $end
$var wire 1 t \inst|Mod0|auto_generated|divider|divider|add_sub_3_result_int[3]~6_combout\ $end
$var wire 1 u \inst|Mod0|auto_generated|divider|divider|add_sub_3_result_int[3]~7\ $end
$var wire 1 v \inst|Mod0|auto_generated|divider|divider|add_sub_3_result_int[4]~8_combout\ $end
$var wire 1 w \inst|Mod0|auto_generated|divider|divider|StageOut[15]~6_combout\ $end
$var wire 1 x \inst|Mux0~5_combout\ $end
$var wire 1 y \SW[10]~input_o\ $end
$var wire 1 z \inst|Mux0~0_combout\ $end
$var wire 1 { \inst|Mult0|auto_generated|op_1~1\ $end
$var wire 1 | \inst|Mult0|auto_generated|op_1~2_combout\ $end
$var wire 1 } \inst|Mult0|auto_generated|cs2a[1]~0_combout\ $end
$var wire 1 ~ \inst|Mult0|auto_generated|op_1~0_combout\ $end
$var wire 1 !! \inst|Mult0|auto_generated|op_3~1\ $end
$var wire 1 "! \inst|Mult0|auto_generated|op_3~3\ $end
$var wire 1 #! \inst|Mult0|auto_generated|op_3~5\ $end
$var wire 1 $! \inst|Mult0|auto_generated|op_3~6_combout\ $end
$var wire 1 %! \inst|Mux0~1_combout\ $end
$var wire 1 &! \inst|Add0~0_combout\ $end
$var wire 1 '! \inst|Add0~1_combout\ $end
$var wire 1 (! \inst|Add0~2_combout\ $end
$var wire 1 )! \inst|Add0~3_combout\ $end
$var wire 1 *! \inst|Add0~5_cout\ $end
$var wire 1 +! \inst|Add0~7\ $end
$var wire 1 ,! \inst|Add0~9\ $end
$var wire 1 -! \inst|Add0~11\ $end
$var wire 1 .! \inst|Add0~12_combout\ $end
$var wire 1 /! \inst|Mux0~2_combout\ $end
$var wire 1 0! \inst|Mod0|auto_generated|divider|divider|selnose[0]~1_combout\ $end
$var wire 1 1! \inst|Mux0~3_combout\ $end
$var wire 1 2! \inst|Mult0|auto_generated|op_3~4_combout\ $end
$var wire 1 3! \inst|Mux1~2_combout\ $end
$var wire 1 4! \inst|Mod0|auto_generated|divider|divider|add_sub_3_result_int[2]~4_combout\ $end
$var wire 1 5! \inst|Mod0|auto_generated|divider|divider|StageOut[14]~7_combout\ $end
$var wire 1 6! \inst|Mux1~3_combout\ $end
$var wire 1 7! \inst|Add0~10_combout\ $end
$var wire 1 8! \inst|Mux1~0_combout\ $end
$var wire 1 9! \inst|Mod0|auto_generated|divider|divider|selnose[5]~2_combout\ $end
$var wire 1 :! \inst|Mux1~1_combout\ $end
$var wire 1 ;! \inst|Mux2~2_combout\ $end
$var wire 1 <! \inst|Mod0|auto_generated|divider|divider|add_sub_3_result_int[1]~2_combout\ $end
$var wire 1 =! \inst|Mod0|auto_generated|divider|divider|StageOut[13]~8_combout\ $end
$var wire 1 >! \inst|Mux2~3_combout\ $end
$var wire 1 ?! \inst|Mult0|auto_generated|op_3~2_combout\ $end
$var wire 1 @! \inst|Add0~8_combout\ $end
$var wire 1 A! \inst|Mux2~0_combout\ $end
$var wire 1 B! \inst|Div0|auto_generated|divider|divider|add_sub_2_result_int[0]~1\ $end
$var wire 1 C! \inst|Div0|auto_generated|divider|divider|add_sub_2_result_int[1]~3\ $end
$var wire 1 D! \inst|Div0|auto_generated|divider|divider|add_sub_2_result_int[2]~5\ $end
$var wire 1 E! \inst|Div0|auto_generated|divider|divider|add_sub_2_result_int[3]~6_combout\ $end
$var wire 1 F! \inst|Mux2~1_combout\ $end
$var wire 1 G! \inst|Mult0|auto_generated|op_3~0_combout\ $end
$var wire 1 H! \inst|Mod0|auto_generated|divider|divider|add_sub_3_result_int[0]~0_combout\ $end
$var wire 1 I! \inst|Mux3~0_combout\ $end
$var wire 1 J! \inst|Mux3~1_combout\ $end
$var wire 1 K! \inst|Mux3~2_combout\ $end
$var wire 1 L! \inst|Add0~6_combout\ $end
$var wire 1 M! \inst|Mux3~3_combout\ $end
$var wire 1 N! \inst|Div0|auto_generated|divider|divider|add_sub_2_result_int[2]~4_combout\ $end
$var wire 1 O! \inst|Div0|auto_generated|divider|divider|StageOut[10]~0_combout\ $end
$var wire 1 P! \inst|Div0|auto_generated|divider|divider|add_sub_2_result_int[1]~2_combout\ $end
$var wire 1 Q! \inst|Div0|auto_generated|divider|divider|StageOut[9]~1_combout\ $end
$var wire 1 R! \inst|Div0|auto_generated|divider|divider|add_sub_2_result_int[0]~0_combout\ $end
$var wire 1 S! \inst|Div0|auto_generated|divider|divider|StageOut[8]~2_combout\ $end
$var wire 1 T! \inst|Div0|auto_generated|divider|divider|add_sub_3_result_int[0]~1_cout\ $end
$var wire 1 U! \inst|Div0|auto_generated|divider|divider|add_sub_3_result_int[1]~3_cout\ $end
$var wire 1 V! \inst|Div0|auto_generated|divider|divider|add_sub_3_result_int[2]~5_cout\ $end
$var wire 1 W! \inst|Div0|auto_generated|divider|divider|add_sub_3_result_int[3]~7_cout\ $end
$var wire 1 X! \inst|Div0|auto_generated|divider|divider|add_sub_3_result_int[4]~8_combout\ $end
$var wire 1 Y! \inst|Mux3~4_combout\ $end
$var wire 1 Z! \inst|Mult0|auto_generated|op_1~3\ $end
$var wire 1 [! \inst|Mult0|auto_generated|op_1~5\ $end
$var wire 1 \! \inst|Mult0|auto_generated|op_1~7\ $end
$var wire 1 ]! \inst|Mult0|auto_generated|op_1~9\ $end
$var wire 1 ^! \inst|Mult0|auto_generated|op_1~10_combout\ $end
$var wire 1 _! \inst|Mult0|auto_generated|op_1~8_combout\ $end
$var wire 1 `! \inst|Mult0|auto_generated|op_1~6_combout\ $end
$var wire 1 a! \inst|Mult0|auto_generated|op_1~4_combout\ $end
$var wire 1 b! \inst|Mult0|auto_generated|op_3~7\ $end
$var wire 1 c! \inst|Mult0|auto_generated|op_3~9\ $end
$var wire 1 d! \inst|Mult0|auto_generated|op_3~11\ $end
$var wire 1 e! \inst|Mult0|auto_generated|op_3~13\ $end
$var wire 1 f! \inst|Mult0|auto_generated|op_3~14_combout\ $end
$var wire 1 g! \inst|m[3]~8_combout\ $end
$var wire 1 h! \inst|Mult0|auto_generated|op_3~12_combout\ $end
$var wire 1 i! \inst|m[2]~9_combout\ $end
$var wire 1 j! \inst|Mult0|auto_generated|op_3~10_combout\ $end
$var wire 1 k! \inst|m[1]~10_combout\ $end
$var wire 1 l! \inst|Mult0|auto_generated|op_3~8_combout\ $end
$var wire 1 m! \inst|m[0]~11_combout\ $end
$var wire 1 n! \inst|Mult0|auto_generated|le4a\ [5] $end
$var wire 1 o! \inst|Mult0|auto_generated|le4a\ [4] $end
$var wire 1 p! \inst|Mult0|auto_generated|le4a\ [3] $end
$var wire 1 q! \inst|Mult0|auto_generated|le4a\ [2] $end
$var wire 1 r! \inst|Mult0|auto_generated|le4a\ [1] $end
$var wire 1 s! \inst|Mult0|auto_generated|le4a\ [0] $end
$var wire 1 t! \inst|Mult0|auto_generated|le3a\ [5] $end
$var wire 1 u! \inst|Mult0|auto_generated|le3a\ [4] $end
$var wire 1 v! \inst|Mult0|auto_generated|le3a\ [3] $end
$var wire 1 w! \inst|Mult0|auto_generated|le3a\ [2] $end
$var wire 1 x! \inst|Mult0|auto_generated|le3a\ [1] $end
$var wire 1 y! \inst|Mult0|auto_generated|le3a\ [0] $end
$var wire 1 z! \inst|Mod0|auto_generated|divider|divider|selnose\ [19] $end
$var wire 1 {! \inst|Mod0|auto_generated|divider|divider|selnose\ [18] $end
$var wire 1 |! \inst|Mod0|auto_generated|divider|divider|selnose\ [17] $end
$var wire 1 }! \inst|Mod0|auto_generated|divider|divider|selnose\ [16] $end
$var wire 1 ~! \inst|Mod0|auto_generated|divider|divider|selnose\ [15] $end
$var wire 1 !" \inst|Mod0|auto_generated|divider|divider|selnose\ [14] $end
$var wire 1 "" \inst|Mod0|auto_generated|divider|divider|selnose\ [13] $end
$var wire 1 #" \inst|Mod0|auto_generated|divider|divider|selnose\ [12] $end
$var wire 1 $" \inst|Mod0|auto_generated|divider|divider|selnose\ [11] $end
$var wire 1 %" \inst|Mod0|auto_generated|divider|divider|selnose\ [10] $end
$var wire 1 &" \inst|Mod0|auto_generated|divider|divider|selnose\ [9] $end
$var wire 1 '" \inst|Mod0|auto_generated|divider|divider|selnose\ [8] $end
$var wire 1 (" \inst|Mod0|auto_generated|divider|divider|selnose\ [7] $end
$var wire 1 )" \inst|Mod0|auto_generated|divider|divider|selnose\ [6] $end
$var wire 1 *" \inst|Mod0|auto_generated|divider|divider|selnose\ [5] $end
$var wire 1 +" \inst|Mod0|auto_generated|divider|divider|selnose\ [4] $end
$var wire 1 ," \inst|Mod0|auto_generated|divider|divider|selnose\ [3] $end
$var wire 1 -" \inst|Mod0|auto_generated|divider|divider|selnose\ [2] $end
$var wire 1 ." \inst|Mod0|auto_generated|divider|divider|selnose\ [1] $end
$var wire 1 /" \inst|Mod0|auto_generated|divider|divider|selnose\ [0] $end
$var wire 1 0" \inst|Div0|auto_generated|divider|divider|selnose\ [19] $end
$var wire 1 1" \inst|Div0|auto_generated|divider|divider|selnose\ [18] $end
$var wire 1 2" \inst|Div0|auto_generated|divider|divider|selnose\ [17] $end
$var wire 1 3" \inst|Div0|auto_generated|divider|divider|selnose\ [16] $end
$var wire 1 4" \inst|Div0|auto_generated|divider|divider|selnose\ [15] $end
$var wire 1 5" \inst|Div0|auto_generated|divider|divider|selnose\ [14] $end
$var wire 1 6" \inst|Div0|auto_generated|divider|divider|selnose\ [13] $end
$var wire 1 7" \inst|Div0|auto_generated|divider|divider|selnose\ [12] $end
$var wire 1 8" \inst|Div0|auto_generated|divider|divider|selnose\ [11] $end
$var wire 1 9" \inst|Div0|auto_generated|divider|divider|selnose\ [10] $end
$var wire 1 :" \inst|Div0|auto_generated|divider|divider|selnose\ [9] $end
$var wire 1 ;" \inst|Div0|auto_generated|divider|divider|selnose\ [8] $end
$var wire 1 <" \inst|Div0|auto_generated|divider|divider|selnose\ [7] $end
$var wire 1 =" \inst|Div0|auto_generated|divider|divider|selnose\ [6] $end
$var wire 1 >" \inst|Div0|auto_generated|divider|divider|selnose\ [5] $end
$var wire 1 ?" \inst|Div0|auto_generated|divider|divider|selnose\ [4] $end
$var wire 1 @" \inst|Div0|auto_generated|divider|divider|selnose\ [3] $end
$var wire 1 A" \inst|Div0|auto_generated|divider|divider|selnose\ [2] $end
$var wire 1 B" \inst|Div0|auto_generated|divider|divider|selnose\ [1] $end
$var wire 1 C" \inst|Div0|auto_generated|divider|divider|selnose\ [0] $end
$var wire 1 D" \inst|Mult0|auto_generated|le5a\ [4] $end
$var wire 1 E" \inst|Mult0|auto_generated|le5a\ [3] $end
$var wire 1 F" \inst|Mult0|auto_generated|le5a\ [2] $end
$var wire 1 G" \inst|Mult0|auto_generated|le5a\ [1] $end
$var wire 1 H" \inst|Mult0|auto_generated|le5a\ [0] $end
$upscope $end
$upscope $end
$enddefinitions $end
#0
$dumpvars
04
15
x6
17
18
19
1:
1;
1<
1P
1Q
1R
1S
0T
0U
0V
0W
0X
0Y
0Z
1[
1\
1]
1^
0_
0`
0a
0b
1c
0d
0e
1f
1g
0h
0i
1j
0k
1l
0m
0n
0o
1p
1q
1r
0s
0t
1u
1v
0w
0x
0y
0z
0{
1|
0}
1~
1!!
1"!
0#!
1$!
0%!
1&!
1'!
1(!
0)!
0*!
1+!
0,!
1-!
1.!
1/!
00!
11!
12!
13!
04!
05!
06!
17!
18!
19!
1:!
1;!
1<!
0=!
0>!
1?!
1@!
1A!
1B!
1C!
0D!
1E!
1F!
0G!
1H!
1I!
1J!
1K!
1L!
1M!
0N!
0O!
1P!
0Q!
0R!
0S!
1T!
1U!
0V!
1W!
1X!
1Y!
1Z!
0[!
1\!
0]!
1^!
0_!
0`!
1a!
1b!
1c!
0d!
1e!
0f!
0g!
0h!
0i!
0j!
0k!
0l!
0m!
0)
0*
0+
0,
0-
0.
1/
10
11
12
03
1=
1>
1?
1@
0A
0B
0C
0D
0E
0F
0G
0H
0I
0J
1K
1L
1M
1N
0O
0n!
0o!
0p!
0q!
0r!
0s!
xt!
1u!
1v!
1w!
0x!
1y!
xz!
x{!
x|!
x}!
x~!
x!"
x""
x#"
x$"
x%"
x&"
x'"
x("
x)"
x*"
x+"
x,"
x-"
x."
1/"
x0"
x1"
x2"
x3"
x4"
x5"
x6"
x7"
x8"
19"
x:"
x;"
x<"
x="
x>"
x?"
x@"
xA"
xB"
xC"
xD"
0E"
0F"
0G"
1H"
1!
1"
1#
1$
0%
0&
0'
0(
$end
#40000
1)
1+
1-
1.
0/
00
0L
0K
1J
1I
1G
1E
1y
1X
1`
1e
0p
0[
1t
1n!
1o!
0H!
1s!
0L!
0H"
1n
1o
1x!
0@!
1,!
1R!
1S!
1G"
1d
0v!
0w!
07!
0-!
1F"
0\
1x
0'!
0(!
1)!
1*!
16!
1>!
0I!
0J!
1z
0/!
0K!
0F!
0+!
1@!
0,!
01!
0x
0.!
0|
0l
0g
1m
0P!
0C!
1Q!
1`!
0U!
0A!
0?!
0"!
0<!
0r
1=!
1l!
0c!
02!
1#!
1]!
1r!
0^!
1f!
1^!
12!
1F!
1V!
1N!
1s
15!
1h
0$!
0b!
17!
1-!
0@!
1,!
0M!
0Y!
07!
0-!
1.!
0l!
1c!
0t
0u
0W!
0f!
0P
0R
0X!
0v
1j!
0.!
0=
0?
1R
0#
0!
05!
0=!
1?
0S
1#
0@
0$
#80000
0)
0+
0.
1,
13
1O
0J
1H
0G
0E
0y
0X
1Z
0e
1_
1H!
0q
0T!
0f
0o
1@!
0,!
0B!
0S!
0G"
1q!
1b
1.!
1E"
0o!
1\
0&!
1'!
1(!
0*!
06!
0>!
0z
0F!
08!
1L!
1+!
0@!
1,!
0.!
1_!
0]!
0^!
1/!
0h
1i
1k
0N!
1D!
1O!
0a!
1[!
0`!
1P!
1C!
1A!
1l
1g
1U!
1r
1I!
1J!
14!
0s
0V!
1h
0i
1F!
1N!
0D!
0j!
1`!
1l!
0c!
0E!
1t
0j
11!
1f!
1^!
1h!
0/!
17!
0A!
1@!
0,!
1M!
0:!
1Y!
07!
1A!
0F!
18!
01!
0f!
1o
1w
09"
1S!
1E!
1j
0t
15!
1K!
0R
16!
0w
0o
19"
0S!
1x
1<!
1:!
1F!
08!
0?
0Q
1P
1R
0#
0:!
0<!
1=!
0x
0>
1=
1?
0P
0R
1S
1#
0"
1!
1>!
0=!
0=
0?
1@
1R
1Q
1$
0#
0!
0>!
1?
1>
0Q
1#
1"
0>
0"
#120000
1.
0,
03
1/
1*
0O
1K
1J
0H
1F
1Y
0Z
1e
1p
0_
0)!
1q
0L!
0+!
1T!
1H"
1f
1o
0r!
0x!
0@!
1,!
1B!
1S!
1G"
0q!
0b
1.!
0E"
1o!
0\
1x
1%!
1>!
0J!
1i!
1m!
1:!
0x
0_!
1]!
0^!
0h
0k
0N!
0O!
1a!
0[!
0`!
0\!
0P!
0C!
17!
0A!
1?!
1"!
1$!
1b!
0l
0g
0l!
1c!
0U!
1@!
0M!
0r
1L!
1+!
0@!
04!
1s
0Y!
1V!
0m!
1h
1/!
02!
1A!
0F!
1N!
1_!
1`!
1\!
1W!
1t
1u
1f!
1^!
0h!
1W
1U
0i!
0f!
1g!
1v
1w
1X!
0_!
1j!
1h!
1F!
0:!
11!
0W!
0t
0u
05!
1D
1B
1Q
1(
1&
0v
0X!
1i!
1k!
0h!
0w
15!
1=!
0g!
1>
0R
0W
0S
1"
0i!
05!
0=!
0?
0D
0@
1P
0Q
1R
1T
0U
0(
0$
0#
1=
0>
1?
1A
0B
0T
1V
1U
0&
1%
1#
0"
1!
0A
1C
1B
0U
1'
1&
0%
0B
0&
#160000
0.
0*
1+
0-
02
0N
0J
0I
1G
0F
0Y
1X
0`
0e
0^
1l
1<!
0n!
1}
0y!
1G!
0!!
1P!
0o!
0u!
0H"
0j!
1h!
0e!
1f!
0n
0o
1@!
0,!
0R!
0S!
0G"
1a
0d
07!
0F"
1p!
1q!
1&!
0'!
1)!
1*!
0%!
03!
0;!
0K!
0k!
0>!
06!
1M!
0+!
0.!
0l
0P!
1-!
0<!
0f!
1l!
0c!
0]!
0Q!
0?!
0G!
0~
0p!
0q!
0^!
1=!
0m
14!
0s
1f!
0a!
0`!
12!
0#!
0V!
1^!
1j!
1d!
0=!
1.!
0/!
0@!
1,!
1Y!
0V
17!
0A!
01!
1/!
0h!
0f!
1W!
0$!
0j!
0l!
1t
1u
15!
0C
0'
1v
1w
1X!
11!
0F!
18!
1S
1:!
0w
05!
1@
0P
1$
0=
0R
1P
0!
0?
1=
1Q
0#
1!
1>
1"
#200000
0+
1-
1,
13
01
1O
0M
1I
1H
0G
0X
1Z
1`
0]
1_
1n
0f
0H!
1y!
1R!
0B!
0h
1i
04!
1s
0}
0s!
10!
0N!
1D!
1V!
0a
1d
1w!
07!
0-!
1q!
1b
0c
1v!
0.!
1p!
1\
0&!
0(!
0*!
13!
1;!
1J!
1K!
0L!
1@!
0,!
1`!
0/!
1|
0d
09!
1h
1N!
1a!
08!
1~
1m
1Q!
0b
0W!
0E!
1O!
0/"
02!
0p!
0q!
0t
0u
0j
1k
1G!
1t
1o
0v
1w
0a!
0`!
09"
1S!
0X!
0h
0N!
14!
15!
12!
1l!
0:!
1l
1g
0m
1P!
1C!
0Q!
1$!
01!
1j!
17!
1-!
1A!
0M!
1.!
18!
1N!
0D!
1Q!
04!
1h
0i
1m
16!
0O!
0k
0Y!
1F!
0j!
0l!
1x
0I!
1<!
1=!
0J!
0t
14!
1j
1k
05!
1E!
1O!
1:!
1/!
0P
0Q
11!
19"
0O!
0Q!
0S!
06!
1t
0k
0m
0o
15!
0w
0K!
1>!
0=
0>
1R
0S
0"
0!
0x
16!
0<!
04!
0t
1w
1?
0@
1Q
0$
1#
1x
0w
05!
0=!
1>
1P
1"
0>!
06!
0x
1=
1!
#240000
1+
11
0/
1)
1M
0K
1G
1E
1y
1X
0p
1]
1b
1c
0h
14!
0s
1}
00!
0N!
0V!
1H!
0q
0y!
1L!
1+!
0T!
0\
1x
1&!
1(!
0)!
1*!
16!
0;!
1>!
1z
0/!
0A!
0F!
0>!
0.!
0x
1U!
0G!
1<!
1r
1W!
1/"
1p!
1q!
1t
1u
15!
1d
19!
1h
1k
1N!
1O!
0W!
0t
0u
0l
0g
1m
0P!
0C!
1Q!
1v
1w
1a!
1`!
1X!
04!
1=!
01!
1j!
1l!
0=!
0N!
1D!
14!
0h
1i
0v
0X!
0R
0w
1=!
0j
0E!
0?
0P
0#
09"
0O!
0Q!
1S!
0k
0m
1o
0=
0!
0<!
0r
04!
1t
1u
0U!
1W!
1X!
1v
1w
05!
14!
0=!
0w
1=!
#280000
01
1.
0M
1J
1e
0]
0b
0c
1h
04!
1s
0}
1'!
10!
03!
1N!
1V!
0n
1f
1r!
1x!
0@!
1,!
0R!
1B!
1P!
0S!
1?!
0$!
0b!
1l
0o
0W!
06!
0/"
0-!
0r!
0p!
0q!
0t
0u
0d
09!
0h
1k
0N!
1O!
0O!
1t
0k
0l
0P!
0v
1w
0a!
0`!
1$!
1b!
1.!
08!
0X!
1<!
1r
0=!
1m
0l!
1c!
1U!
1Q!
0:!
0c!
1=!
0Q!
0m
0t
0w
14!
0s
0V!
0j!
1W!
1t
1u
15!
0Q
1v
1w
1X!
0>
0"
0w
05!
0=!
#320000
11
0.
0+
0)
0,
12
10
1N
1M
1L
0J
0H
0G
0E
0y
0X
0Z
0e
1[
1]
1^
1l
1g
0<!
1y!
1G!
1P!
1C!
1j!
1h!
1f!
1h
0i
04!
1N!
0D!
0t
00!
19"
1F"
1n
0f
0w!
1@!
0,!
1R!
0B!
1c
0.!
1/"
1u!
1\
1)!
0*!
13!
1;!
0z
18!
1M!
1a!
1d
19!
0P!
07!
1A!
0~
0l
1_!
1E!
1j
0N!
0G!
1!!
0h
0?!
0"!
0h!
1e!
02!
1F!
08!
1l
1m
1P!
1Q!
1l!
1Y!
1:!
14!
15!
0:!
0f!
12!
16!
1Q
1S
1R
1>
1@
1?
0Q
1$
1#
1"
0>
0"
#360000
01
1.
1+
1,
00
1/
03
1*
0O
0M
0L
1K
1J
1H
1G
1F
1Y
1X
1Z
1e
1p
0[
0]
0_
1h
04!
1s
1}
1N!
1V!
1t
10!
0F"
1q
1s!
0L!
0+!
1T!
1f
1o
0x!
0@!
1,!
1B!
1S!
0c
0v!
1.!
0u!
0(!
1*!
1I!
1x
1z
1%!
0;!
1>!
1J!
1K!
0>!
1:!
0Y!
18!
0F!
11!
1L!
0a!
1/!
0|
09!
0P!
0C!
17!
1?!
1"!
1=!
0l
0g
0U!
02!
1#!
0r
0_!
0W!
1r!
1p!
1q!
0t
0u
0v
1a!
1`!
0X!
1h!
0e!
14!
0h
1i
12!
0#!
0N!
1D!
0$!
0b!
01!
0l!
0E!
1$!
1b!
0j
1f!
1Y!
0j!
0d!
1c!
0=!
1P
0R
0S
1Q
1j!
0h!
1e!
0m
1l!
0c!
09"
0Q!
1=
0?
0@
1>
0P
0$
0#
1"
1!
1F!
0j!
04!
0f!
0=
1S
0!
05!
1@
1$
1R
1?
1#
#400000
11
0.
0+
0,
0*
02
0N
1M
0J
0H
0G
0F
0Y
0X
0Z
0e
1]
0^
1a
1l
1<!
0y!
1G!
0!!
1P!
1j!
1d!
1h!
0e!
1f!
1h
0i
14!
0s
00!
1N!
0D!
0V!
0n
0r!
1@!
0,!
0R!
1c
0.!
0/"
0p!
0&!
0)!
0*!
0x
0z
0%!
06!
1;!
1+!
1.!
0`!
11!
0/!
19!
0S!
07!
0$!
0o
1W!
1E!
1O!
1/"
1t
1u
15!
1j
1k
0f!
0h!
1Q!
0?!
0G!
1=!
1m
04!
1s
1>!
1V!
0t
0u
0k
16!
1v
1w
0W!
19"
0O!
1X!
0<!
08!
01!
0j!
1/!
0@!
0A!
11!
0:!
0X!
1x
0=!
0v
0w
1P
0x
05!
0>!
0F!
1=
0P
1!
06!
0=
0Q
1P
0!
0>
1=
0R
0"
1!
0?
0#
#440000
1.
1,
1*
13
1)
1O
1J
1H
1F
1E
1y
1Y
1Z
1e
1_
0a
0H!
1y!
1)!
1o
1w!
1r!
1x!
1@!
1S!
1b
1v!
0.!
1p!
1x
16!
1>!
0J!
0K!
1z
0M!
1K!
1F!
18!
01!
1`!
0/!
1|
0h
1i
1k
0N!
1D!
1O!
1?!
1$!
1~
1<!
0L!
0+!
1G!
0I!
0@!
1,!
1=!
02!
1#!
0E!
1t
0j
0$!
0b!
11!
1j!
1:!
1M!
0Y!
1Y!
0l!
1c!
0k
0o
1w
09"
0O!
0S!
1$!
17!
0P
1R
0<!
0t
0j!
0d!
0=
1?
0S
1Q
1P
1#
0!
1h!
0w
0=!
0@
1>
1=
1S
0$
1"
1!
1@
1$
#480000
0.
0*
03
0)
01
10
0O
0M
1L
0J
0F
0E
0y
0Y
0e
1[
0]
0_
1a
1H!
0v!
0y!
0)!
1h
14!
0}
0'!
1N!
1k
1t
1u
1n!
1&!
19"
1O!
1W!
1E"
1F"
1H"
0w!
0r!
0x!
1@!
0,!
0x
06!
0>!
0K!
0z
0M!
01!
1A!
0?!
0$!
1l!
1_!
1X!
0W!
0F!
1.!
1v
0t
0u
1w
1-!
0p!
15!
1L!
1+!
0G!
0|
1I!
1J!
1$!
1b!
0@!
1M!
16!
0`!
0.!
1x
0v
0X!
0h!
1e!
1/!
1F!
0Y!
1f!
0w
11!
1j!
1d!
1Y!
0A!
0l!
0/!
1K!
0R
0P
01!
0F!
1h!
0e!
0x
0?
0=
0S
1R
0#
0!
0f!
0@
1?
1S
1P
0$
1#
1@
1=
0R
0P
1$
1!
0?
0=
0#
0!
#520000
1.
1*
13
11
0,
1O
1M
1J
0H
1F
1Y
0Z
1e
1]
1_
0a
0H!
1y!
1)!
0h
04!
1}
0s!
1'!
0N!
1o
1w!
1x!
1@!
1S!
1G"
0q!
0b
1.!
0E"
1o!
1x
1%!
1>!
0J!
0K!
1i!
1k!
1K!
08!
0:!
0M!
0_!
1]!
0^!
1/!
1h
0i
1N!
0D!
0a!
1`!
1?!
0~
1{
1<!
0O!
07!
0-!
12!
0#!
1p!
05!
0k
0L!
0+!
1G!
0I!
0@!
1,!
1t
1u
0`!
0\!
0$!
0.!
1W!
1=!
1|
02!
1A!
0j!
0d!
1l!
0c!
1E!
1j
11!
1f!
1^!
0h!
1:!
1V
1U
0i!
0f!
1g!
1m!
1h!
0k!
1F!
0:!
1$!
1X!
0/!
1_!
1d!
1v
1w
17!
1C
1B
0Q
1'
1&
0w
15!
1I!
01!
1/!
1i!
0g!
0>
1Q
1P
0"
11!
1>
1=
0Q
1R
0V
1W
1T
0U
1"
1!
0>
1?
0C
1D
1A
0B
0T
1U
0P
1(
0'
0&
1%
1#
0"
0A
1B
0=
1P
1&
0%
0!
1=
1!
