LECI/LSD/WSpace/ClkDiv/simulation/qsim/ClkDividerDemo.msim.vcd
$comment
	File created using the following command:
		vcd file ClkDividerDemo.msim.vcd -direction
$end
$date
	Fri Jun 18 11:02:26 2021
$end
$version
	ModelSim Version 10.5b
$end
$timescale
	1ps
$end

$scope module clkdividern_vhd_vec_tst $end
$var wire 1 ! clkEn $end
$var wire 1 " clkIn $end
$var wire 1 # clkOut $end

$scope module i1 $end
$var wire 1 $ gnd $end
$var wire 1 % vcc $end
$var wire 1 & unknown $end
$var wire 1 ' devoe $end
$var wire 1 ( devclrn $end
$var wire 1 ) devpor $end
$var wire 1 * ww_devoe $end
$var wire 1 + ww_devclrn $end
$var wire 1 , ww_devpor $end
$var wire 1 - ww_clkIn $end
$var wire 1 . ww_clkEn $end
$var wire 1 / ww_clkOut $end
$var wire 1 0 \clkOut~output_o\ $end
$var wire 1 1 \clkIn~input_o\ $end
$var wire 1 2 \clkEn~input_o\ $end
$var wire 1 3 \clkOut~1_combout\ $end
$var wire 1 4 \Equal0~0_combout\ $end
$var wire 1 5 \clkOut~0_combout\ $end
$var wire 1 6 \clkOut~reg0_q\ $end
$var wire 1 7 s_divCounter [1] $end
$var wire 1 8 s_divCounter [0] $end
$upscope $end
$upscope $end
$enddefinitions $end
#0
$dumpvars
1!
0"
0#
0$
1%
x&
1'
1(
1)
1*
1+
1,
0-
1.
0/
00
01
12
03
14
15
06
07
08
$end
#25000
1"
1-
11
18
16
13
04
10
1/
1#
#50000
0"
0-
01
#75000
1"
1-
11
17
08
03
05
#100000
0"
0-
01
#125000
1"
1-
11
07
06
14
15
00
0/
0#
#150000
0"
0-
01
#175000
1"
1-
11
18
16
13
04
10
1/
1#
#190000
0!
0.
02
05
#200000
0"
0-
01
#225000
1"
1-
11
06
00
0/
0#
#250000
0"
0-
01
#275000
1"
1-
11
#300000
0"
0-
01
#325000
1"
1-
11
#350000
0"
0-
01
#375000
1"
1-
11
#400000
0"
0-
01
#425000
1"
1-
11
#450000
0"
0-
01
#475000
1"
1-
11
#500000
0"
0-
01
#525000
1"
1-
11
#540000
1!
1.
12
#550000
0"
0-
01
#575000
1"
1-
11
17
08
03
#600000
0"
0-
01
#625000
1"
1-
11
07
14
15
#650000
0"
0-
01
#675000
1"
1-
11
18
16
13
04
10
1/
1#
#700000
0"
0-
01
#725000
1"
1-
11
17
08
03
05
#750000
0"
0-
01
#775000
1"
1-
11
07
06
14
15
00
0/
0#
#800000
0"
0-
01
#825000
1"
1-
11
18
16
13
04
10
1/
1#
#850000
0"
0-
01
#875000
1"
1-
11
17
08
03
05
#900000
0"
0-
01
#925000
1"
1-
11
07
06
14
15
00
0/
0#
#950000
0"
0-
01
#975000
1"
1-
11
18
16
13
04
10
1/
1#
