LSD/WSpace/Timer2/simulation/qsim/Timer2Demo.msim.vcd
$comment
	File created using the following command:
		vcd file Timer2Demo.msim.vcd -direction
$end
$date
	Thu Jun 17 15:59:10 2021
$end
$version
	ModelSim Version 10.5b
$end
$timescale
	1ps
$end

$scope module Timer2_Block_vlg_vec_tst $end
$var reg 1 ! CLOCK_50 $end
$var reg 7 " SW [6:0] $end
$var wire 1 # LEDR [0] $end

$scope module i1 $end
$var wire 1 $ gnd $end
$var wire 1 % vcc $end
$var wire 1 & unknown $end
$var tri1 1 ' devclrn $end
$var tri1 1 ( devpor $end
$var tri1 1 ) devoe $end
$var wire 1 * LEDR[0]~output_o $end
$var wire 1 + CLOCK_50~input_o $end
$var wire 1 , CLOCK_50~inputclkctrl_outclk $end
$var wire 1 - SW[4]~input_o $end
$var wire 1 . SW[5]~input_o $end
$var wire 1 / SW[1]~input_o $end
$var wire 1 0 SW[2]~input_o $end
$var wire 1 1 SW[3]~input_o $end
$var wire 1 2 SW[0]~input_o $end
$var wire 1 3 inst|Mult0|mult_core|romout[0][26]~2_combout $end
$var wire 1 4 inst|Mult0|mult_core|romout[0][25]~3_combout $end
$var wire 1 5 inst|Mult0|mult_core|romout[0][24]~4_combout $end
$var wire 1 6 inst|Mult0|mult_core|romout[0][15]~9_combout $end
$var wire 1 7 inst|Mult0|mult_core|romout[0][14]~10_combout $end
$var wire 1 8 inst|Mult0|mult_core|romout[0][13]~11_combout $end
$var wire 1 9 inst|Add0~1_cout $end
$var wire 1 : inst|Add0~3 $end
$var wire 1 ; inst|Add0~6 $end
$var wire 1 < inst|Add0~9 $end
$var wire 1 = inst|Add0~12 $end
$var wire 1 > inst|Add0~15 $end
$var wire 1 ? inst|Add0~18 $end
$var wire 1 @ inst|Add0~20 $end
$var wire 1 A inst|Add0~22 $end
$var wire 1 B inst|Add0~24 $end
$var wire 1 C inst|Add0~26 $end
$var wire 1 D inst|Add0~27_combout $end
$var wire 1 E inst|Add0~25_combout $end
$var wire 1 F inst|Add0~23_combout $end
$var wire 1 G inst|Add0~21_combout $end
$var wire 1 H inst|Add0~19_combout $end
$var wire 1 I inst|Add0~17_combout $end
$var wire 1 J inst|Add0~14_combout $end
$var wire 1 K inst|Add0~11_combout $end
$var wire 1 L inst|Add0~8_combout $end
$var wire 1 M inst|Add0~5_combout $end
$var wire 1 N inst|Add0~2_combout $end
$var wire 1 O SW[6]~input_o $end
$var wire 1 P inst|Add1~0_combout $end
$var wire 1 Q inst|s_counter~17_combout $end
$var wire 1 R inst|s_counter[0]~18_combout $end
$var wire 1 S inst|Add1~1 $end
$var wire 1 T inst|Add1~2_combout $end
$var wire 1 U inst|s_counter~19_combout $end
$var wire 1 V inst|Add1~3 $end
$var wire 1 W inst|Add1~4_combout $end
$var wire 1 X inst|s_counter~20_combout $end
$var wire 1 Y inst|Add1~5 $end
$var wire 1 Z inst|Add1~6_combout $end
$var wire 1 [ inst|s_counter~21_combout $end
$var wire 1 \ inst|Add1~7 $end
$var wire 1 ] inst|Add1~8_combout $end
$var wire 1 ^ inst|s_counter~22_combout $end
$var wire 1 _ inst|Add1~9 $end
$var wire 1 ` inst|Add1~10_combout $end
$var wire 1 a inst|s_counter~23_combout $end
$var wire 1 b inst|Add1~11 $end
$var wire 1 c inst|Add1~12_combout $end
$var wire 1 d inst|s_counter~24_combout $end
$var wire 1 e inst|Add1~13 $end
$var wire 1 f inst|Add1~14_combout $end
$var wire 1 g inst|s_counter~25_combout $end
$var wire 1 h inst|Add1~15 $end
$var wire 1 i inst|Add1~16_combout $end
$var wire 1 j inst|Add0~4_combout $end
$var wire 1 k inst|Add1~17 $end
$var wire 1 l inst|Add1~18_combout $end
$var wire 1 m inst|Add0~7_combout $end
$var wire 1 n inst|Add1~19 $end
$var wire 1 o inst|Add1~20_combout $end
$var wire 1 p inst|Add0~10_combout $end
$var wire 1 q inst|Add1~21 $end
$var wire 1 r inst|Add1~22_combout $end
$var wire 1 s inst|Add0~13_combout $end
$var wire 1 t inst|Add1~23 $end
$var wire 1 u inst|Add1~24_combout $end
$var wire 1 v inst|Add0~16_combout $end
$var wire 1 w inst|Add1~25 $end
$var wire 1 x inst|Add1~26_combout $end
$var wire 1 y inst|s_counter[13]~0_combout $end
$var wire 1 z inst|Add1~27 $end
$var wire 1 { inst|Add1~28_combout $end
$var wire 1 | inst|s_counter[14]~1_combout $end
$var wire 1 } inst|Mult0|mult_core|romout[0][14]~10_wirecell_combout $end
$var wire 1 ~ inst|Add1~29 $end
$var wire 1 !! inst|Add1~30_combout $end
$var wire 1 "! inst|s_counter[15]~2_combout $end
$var wire 1 #! inst|Mult0|mult_core|romout[0][15]~9_wirecell_combout $end
$var wire 1 $! inst|Add1~31 $end
$var wire 1 %! inst|Add1~32_combout $end
$var wire 1 &! inst|s_counter[16]~3_combout $end
$var wire 1 '! inst|Add1~33 $end
$var wire 1 (! inst|Add1~34_combout $end
$var wire 1 )! inst|s_counter[17]~4_combout $end
$var wire 1 *! inst|Add1~35 $end
$var wire 1 +! inst|Add1~36_combout $end
$var wire 1 ,! inst|s_counter[18]~5_combout $end
$var wire 1 -! inst|Mult0|mult_core|romout[0][19]~8_combout $end
$var wire 1 .! inst|Add0~28 $end
$var wire 1 /! inst|Add0~29_combout $end
$var wire 1 0! inst|Add1~37 $end
$var wire 1 1! inst|Add1~38_combout $end
$var wire 1 2! inst|s_counter[19]~6_combout $end
$var wire 1 3! inst|s_cntZero~6_combout $end
$var wire 1 4! inst|Mult0|mult_core|romout[0][20]~7_combout $end
$var wire 1 5! inst|Add0~30 $end
$var wire 1 6! inst|Add0~31_combout $end
$var wire 1 7! inst|Add1~39 $end
$var wire 1 8! inst|Add1~40_combout $end
$var wire 1 9! inst|s_counter[20]~7_combout $end
$var wire 1 :! inst|s_cntZero~5_combout $end
$var wire 1 ;! inst|Mult0|mult_core|romout[0][21]~combout $end
$var wire 1 <! inst|Add0~32 $end
$var wire 1 =! inst|Add0~33_combout $end
$var wire 1 >! inst|Add1~41 $end
$var wire 1 ?! inst|Add1~42_combout $end
$var wire 1 @! inst|s_counter[21]~8_combout $end
$var wire 1 A! inst|s_cntZero~7_combout $end
$var wire 1 B! inst|Mult0|mult_core|romout[0][22]~6_combout $end
$var wire 1 C! inst|Add0~34 $end
$var wire 1 D! inst|Add0~35_combout $end
$var wire 1 E! inst|Add1~43 $end
$var wire 1 F! inst|Add1~44_combout $end
$var wire 1 G! inst|s_counter[22]~9_combout $end
$var wire 1 H! inst|Mult0|mult_core|romout[0][23]~5_combout $end
$var wire 1 I! inst|Add0~36 $end
$var wire 1 J! inst|Add0~38 $end
$var wire 1 K! inst|Add0~39_combout $end
$var wire 1 L! inst|Add0~37_combout $end
$var wire 1 M! inst|Add1~45 $end
$var wire 1 N! inst|Add1~46_combout $end
$var wire 1 O! inst|s_counter[23]~10_combout $end
$var wire 1 P! inst|Add1~47 $end
$var wire 1 Q! inst|Add1~48_combout $end
$var wire 1 R! inst|s_counter[24]~11_combout $end
$var wire 1 S! inst|Add1~49 $end
$var wire 1 T! inst|Add1~50_combout $end
$var wire 1 U! inst|Add0~40 $end
$var wire 1 V! inst|Add0~41_combout $end
$var wire 1 W! inst|s_counter[25]~12_combout $end
$var wire 1 X! inst|s_cntZero~8_combout $end
$var wire 1 Y! inst|Mult0|mult_core|romout[0][29]~combout $end
$var wire 1 Z! inst|Mult0|mult_core|romout[0][28]~0_combout $end
$var wire 1 [! inst|Mult0|mult_core|romout[0][27]~1_combout $end
$var wire 1 \! inst|Add0~42 $end
$var wire 1 ]! inst|Add0~44 $end
$var wire 1 ^! inst|Add0~46 $end
$var wire 1 _! inst|Add0~48 $end
$var wire 1 `! inst|Add0~49_combout $end
$var wire 1 a! inst|Add0~45_combout $end
$var wire 1 b! inst|Add0~43_combout $end
$var wire 1 c! inst|Add1~51 $end
$var wire 1 d! inst|Add1~52_combout $end
$var wire 1 e! inst|s_counter[26]~13_combout $end
$var wire 1 f! inst|Add1~53 $end
$var wire 1 g! inst|Add1~54_combout $end
$var wire 1 h! inst|s_counter[27]~14_combout $end
$var wire 1 i! inst|Add1~55 $end
$var wire 1 j! inst|Add1~56_combout $end
$var wire 1 k! inst|Add0~47_combout $end
$var wire 1 l! inst|s_counter[28]~15_combout $end
$var wire 1 m! inst|Add1~57 $end
$var wire 1 n! inst|Add1~58_combout $end
$var wire 1 o! inst|s_counter[29]~16_combout $end
$var wire 1 p! inst|s_cntZero~9_combout $end
$var wire 1 q! inst|s_cntZero~1_combout $end
$var wire 1 r! inst|Add1~59 $end
$var wire 1 s! inst|Add1~60_combout $end
$var wire 1 t! inst|Add0~50 $end
$var wire 1 u! inst|Add0~51_combout $end
$var wire 1 v! inst|Add0~53_combout $end
$var wire 1 w! inst|s_cntZero~3_combout $end
$var wire 1 x! inst|s_cntZero~0_combout $end
$var wire 1 y! inst|s_cntZero~2_combout $end
$var wire 1 z! inst|s_cntZero~4_combout $end
$var wire 1 {! inst|s_cntZero~10_combout $end
$var wire 1 |! inst|s_cntZero~11_combout $end
$var wire 1 }! inst|s_cntZero~q $end
$var wire 1 ~! inst|s_counter [30] $end
$var wire 1 !" inst|s_counter [29] $end
$var wire 1 "" inst|s_counter [28] $end
$var wire 1 #" inst|s_counter [27] $end
$var wire 1 $" inst|s_counter [26] $end
$var wire 1 %" inst|s_counter [25] $end
$var wire 1 &" inst|s_counter [24] $end
$var wire 1 '" inst|s_counter [23] $end
$var wire 1 (" inst|s_counter [22] $end
$var wire 1 )" inst|s_counter [21] $end
$var wire 1 *" inst|s_counter [20] $end
$var wire 1 +" inst|s_counter [19] $end
$var wire 1 ," inst|s_counter [18] $end
$var wire 1 -" inst|s_counter [17] $end
$var wire 1 ." inst|s_counter [16] $end
$var wire 1 /" inst|s_counter [15] $end
$var wire 1 0" inst|s_counter [14] $end
$var wire 1 1" inst|s_counter [13] $end
$var wire 1 2" inst|s_counter [12] $end
$var wire 1 3" inst|s_counter [11] $end
$var wire 1 4" inst|s_counter [10] $end
$var wire 1 5" inst|s_counter [9] $end
$var wire 1 6" inst|s_counter [8] $end
$var wire 1 7" inst|s_counter [7] $end
$var wire 1 8" inst|s_counter [6] $end
$var wire 1 9" inst|s_counter [5] $end
$var wire 1 :" inst|s_counter [4] $end
$var wire 1 ;" inst|s_counter [3] $end
$var wire 1 <" inst|s_counter [2] $end
$var wire 1 =" inst|s_counter [1] $end
$var wire 1 >" inst|s_counter [0] $end
$upscope $end
$upscope $end
$enddefinitions $end
#0
$dumpvars
1!
b100100 "
0#
0$
1%
x&
1'
1(
1)
0*
1+
1,
0-
1.
0/
10
01
02
03
14
15
06
07
08
09
1:
1;
0<
1=
0>
1?
0@
1A
0B
1C
0D
1E
1F
1G
1H
0I
0J
0K
0L
0M
1N
0O
1P
1Q
0R
0S
1T
1U
1V
1W
1X
0Y
1Z
1[
1\
1]
1^
0_
1`
1a
1b
1c
1d
0e
1f
1g
1h
1i
1j
0k
1l
0m
1n
1o
0p
0q
1r
0s
1t
1u
0v
0w
1x
0y
1z
1{
1|
1}
0~
1!!
1"!
1#!
1$!
1%!
1&!
0'!
1(!
1)!
1*!
1+!
0,!
1-!
0.!
1/!
00!
11!
12!
13!
04!
15!
06!
17!
18!
09!
1:!
1;!
0<!
1=!
0>!
1?!
1@!
1A!
1B!
1C!
1D!
1E!
1F!
1G!
1H!
0I!
1J!
1K!
1L!
0M!
1N!
1O!
1P!
1Q!
1R!
0S!
1T!
0U!
1V!
1W!
1X!
0Y!
0Z!
1[!
1\!
0]!
1^!
0_!
0`!
1a!
0b!
1c!
1d!
0e!
0f!
1g!
1h!
1i!
1j!
0k!
0l!
0m!
1n!
0o!
1p!
1q!
1r!
1s!
1t!
0u!
0v!
1w!
0x!
1y!
0z!
0{!
0|!
0}!
0>"
0="
0<"
0;"
0:"
09"
08"
07"
06"
05"
04"
03"
02"
01"
00"
0/"
0."
0-"
0,"
0+"
0*"
0)"
0("
0'"
0&"
0%"
0$"
0#"
0""
0!"
0~!
$end
#5000
0!
0+
0,
#20000
1!
1+
1,
#30000
0!
0+
0,
#35000
1!
1+
1,
#50000
b1100100 "
b1110100 "
b1111100 "
b1111000 "
b1111010 "
1/
00
11
1-
1O
1Z!
0;!
0:
0N
18
16
04
13
0;
1M
1L
1R
0d
0a
0^
0[
0X
0U
0Q
1k!
0=!
1;
0M
1I
0#!
0G
0V!
0E
1b!
1D
0L
0j
1m
1p
1L
1l!
0@!
0m
1y
0"!
0W!
0)!
1e!
1,!
0p
1p
#70000
0!
0+
0,
#75000
1!
1+
1,
1""
1#"
1$"
1&"
1'"
1("
1+"
1,"
1."
10"
11"
14"
16"
0p!
1m!
0j!
0i!
0g!
1f!
0d!
0X!
1S!
0Q!
0P!
0N!
1M!
0F!
03!
07!
01!
10!
0+!
0:!
1'!
0%!
1~
0{
0w!
0z
0x
0y!
1q
0o
1k
0i
0r!
0n!
1j!
1g!
0c!
0T!
1Q!
1N!
0A!
1>!
08!
11!
0*!
0(!
0$!
0!!
1{
0t
0r
0n
0l
0s!
1d!
0E!
0?!
1+!
1%!
1w
0u
1o
1F!
1x
#80000
0!
0+
0,
#90000
1!
1+
1,
#100000
b1011010 "
b1010010 "
01
0.
0[!
0Z!
1;!
14!
0-!
0L
06
1x!
0a!
0k!
1=!
16!
0/!
1#!
1G
#105000
0!
0+
0,
#110000
1!
1+
1,
0""
0#"
1)"
1*"
0+"
1/"
04"
0j!
0g!
1?!
18!
01!
1!!
0o
0l!
0h!
1@!
19!
02!
1"!
0p
#115000
0!
0+
0,
#120000
1!
1+
1,
#125000
0!
0+
0,
#130000
1!
1+
1,
#140000
0!
0+
0,
#150000
b1010110 "
b1010100 "
b1110100 "
b1111100 "
0/
10
11
1.
1Y!
0;!
04!
1:
1N
08
16
14
03
1M
1L
0x!
1`!
0=!
06!
0M
0I
0#!
0G
1V!
1E
0b!
0D
1j
1m
1p
1o!
0@!
09!
0m
0y
0"!
1W!
1)!
0e!
0,!
#165000
1!
1+
1,
1!"
0$"
1%"
0)"
0*"
0,"
1-"
0/"
01"
14"
15"
06"
1n!
0d!
1T!
0?!
08!
13!
0+!
1(!
0!!
1w!
0x
1o
1l
0k
1i
0l
#170000
0!
0+
0,
#180000
1!
1+
1,
#195000
0!
0+
0,
#200000
b1111101 "
b1111001 "
b1111011 "
12
1/
00
1-!
1J
19
05
04
0:
0N
0;
1M
0g
1/!
1N
0K!
0F
0V!
0E
1;
0M
0L
1v
0j
1m
1L
12!
1j
0R!
0&!
0W!
0)!
0m
0p
1p
#210000
1!
1+
1,
0%"
0&"
1+"
0-"
0."
12"
05"
16"
17"
0T!
0Q!
03!
11!
0(!
0%!
0w!
1u
1n
1l
1k
0i
0h
0f
0o
0n
0l
1i
1o
#225000
0!
0+
0,
#230000
1!
1+
1,
#250000
b1101011 "
b1001011 "
b1001010 "
b1001110 "
02
10
0-
0.
1[!
0B!
1;!
14!
0J
09
18
17
15
1M
1x!
1a!
0D!
1=!
16!
0N
1I
0}
0H
1K!
1F
#275000
0!
0+
0,
#285000
1!
1+
1,
1#"
1&"
0("
1)"
1*"
1."
00"
11"
02"
15"
07"
1g!
1Q!
0F!
1?!
18!
1%!
0{
1x
0u
1l
1h
1f
0i
1h!
1R!
0G!
1@!
19!
1&!
0|
1y
0v
1m
1g
0j
#290000
0!
0+
0,
#300000
b1000110 "
b1000100 "
b1100100 "
1!
0/
01
1.
1+
1,
0Y!
1B!
04!
1:
1N
08
07
06
14
0L
0x!
0`!
1D!
06!
0M
0I
1}
1H
1#!
1G
1V!
1E
1j
0p
0o!
1G!
09!
0m
0y
1|
1"!
1W!
1)!
04"
06"
0o
0k
1i
0l
#340000
0!
0+
0,
#350000
b100100 "
b110100 "
b110101 "
b110001 "
b111001 "
b111011 "
b11011 "
12
1/
00
11
1-
0.
0O
0[!
1Y!
0;!
1J
19
16
05
04
0:
0N
0;
1M
1L
1x!
1o!
0W!
0G!
19!
0)!
0"!
0|
1y
1d
1a
1^
1[
1X
1U
1Q
0a!
1`!
0=!
1N
0#!
0G
0K!
0F
0V!
0E
1;
0M
0L
1L
#370000
1!
1+
1,
05"
16"
17"
18"
19"
1:"
1;"
1<"
1="
1>"
1n
1l
1k
0i
0h
0f
0q!
1e
0c
0b
0`
1_
0]
0\
0Z
0x!
1Y
0W
0V
0T
1S
0P
0q
1o
0n
0l
1i
1f
1c
1`
1]
1Z
1W
1T
1m
0j
0g
0d
0a
0^
0[
0X
0U
0Q
1t
1r
1q
0o
1p
0m
1j
1g
1d
1a
1^
1[
1X
1U
0w
1u
0t
0r
1s
0p
0x
1w
0u
1v
0s
1x
0y
0v
1y
#385000
0!
0+
0,
#390000
1!
1+
1,
0>"
0S
1P
0T
1Q
0U
#400000
b1011 "
b1111 "
10
0-
1[!
0B!
1;!
14!
0-!
1M
17
13
0R
1a!
0D!
1=!
16!
0/!
0}
0H
1b!
1D
#415000
0!
0+
0,
#440000
1!
1+
1,
#445000
0!
0+
0,
#450000
b1001111 "
b1001110 "
b1000110 "
b1100110 "
b1110110 "
b1110010 "
1!
02
00
01
1-
1.
1O
1+
1,
0[!
0Y!
1B!
0J
09
18
07
06
15
0M
0L
1R
1e!
0R!
02!
1,!
0&!
0y
1v
1p
1m
0d
0a
0^
0[
0X
0Q
0a!
0`!
1D!
0N
1I
1}
1H
1#!
1G
1K!
1F
0v
0m
0p
0h!
0o!
1G!
0j
1y
1|
1"!
1R!
1&!
#455000
0!
0+
0,
#460000
1!
1+
1,
0!"
0#"
1$"
1("
0+"
1,"
1/"
10"
07"
08"
09"
0:"
0;"
0<"
0="
0n!
0g!
1d!
1F!
01!
1+!
1!!
1{
0f
1q!
0c
0`
0]
0Z
0W
1V
1T
0Y
1W
1\
1Z
0_
1]
1b
1`
0e
1c
1h
1f
0i
#465000
0!
0+
0,
#475000
1!
1+
1,
#500000
b110010 "
b110011 "
b111011 "
b11011 "
b11111 "
0!
12
10
11
0.
0O
0+
0,
1[!
1Y!
0B!
1J
19
08
17
16
05
1M
1L
1x!
1d
1a
1^
1[
1X
1U
1Q
1a!
1`!
0D!
1N
0I
0}
0H
0#!
0G
0K!
0F
#515000
1!
1+
1,
06"
17"
18"
19"
1:"
1;"
1<"
1="
1>"
0k
1i
0h
0f
0q!
1e
0c
0b
0`
1_
0]
0\
0Z
0x!
1Y
0W
0V
0T
1S
0P
1n
1l
1k
0i
1f
1c
1`
1]
1Z
1W
1T
1j
0g
0d
0a
0^
0[
0X
0U
0Q
0q
1o
0n
0l
1m
0j
1g
1d
1a
1^
1[
1X
1U
1t
1r
1q
0o
1p
0m
0w
1u
0t
0r
1s
0p
0x
1w
0u
1v
0s
1x
0y
0v
1y
#535000
0!
0+
0,
#550000
b11101 "
b1101 "
b1001101 "
b1000101 "
b1100101 "
b1100001 "
0/
00
01
0-
1.
1O
0[!
0Y!
1B!
1-!
0N
18
07
06
14
03
0M
0L
1o!
1h!
0R!
0G!
0&!
0"!
0|
0y
1v
1p
1m
1j
0g
0d
0a
0^
0[
0X
0U
0a!
0`!
1D!
1/!
1I
1}
1H
1#!
1G
1V!
1E
0b!
0D
0j
0m
0p
0h!
0o!
1G!
12!
1y
1|
1"!
1W!
1)!
0e!
0,!
#565000
1!
1+
1,
0$"
1%"
0&"
1+"
0,"
1-"
0."
12"
08"
09"
0:"
0;"
0<"
0="
0>"
1p!
0d!
1T!
0Q!
11!
0+!
1(!
0%!
1u
1q!
0c
0`
0]
0Z
0W
0T
0S
1P
1V
1T
0Y
1W
1\
1Z
0_
1]
1b
1`
0e
1c
0f
#570000
0!
0+
0,
#590000
1!
1+
1,
#595000
0!
0+
0,
#600000
b1100000 "
b100000 "
b0 "
02
0.
0O
0H!
0B!
0;!
04!
0-!
0J
09
08
17
16
04
1x!
0R
1d
1a
1^
1[
1X
1U
1Q
0L!
0D!
0=!
06!
0/!
1:
1N
0I
0}
0H
0#!
0G
0V!
0E
0;
1M
1<
1L
0=
1K
1>
1J
0?
1I
1@
1H
0A
1G
1B
1F
0C
1E
1.!
1D
05!
1/!
1<!
16!
0C!
1=!
1I!
1D!
0J!
1L!
1U!
1K!
0\!
1V!
1]!
1b!
0^!
1a!
1_!
1k!
0t!
1`!
1u!
#605000
1!
1+
1,
#610000
0!
0+
0,
#615000
1!
1+
1,
#625000
0!
0+
0,
#630000
1!
1+
1,
#650000
b10 "
b110 "
b111 "
b1000111 "
12
1/
10
1O
1Z!
1H!
1B!
14!
1-!
0>
0J
19
06
13
0:
0N
1;
0M
1R
0d
0a
0^
0[
0X
0U
0Q
0_!
0k!
1J!
0L!
0I!
0D!
0<!
06!
15!
0/!
1?
0I
1N
1#!
1A
0G
0]!
0b!
0.!
0D
1M
0<
0L
1t!
0`!
0U!
0K!
1L!
1C!
0=!
16!
0@
0H
0B
0F
1^!
0a!
1/!
1=
0K
0u!
1\!
0V!
1D!
1G
1C
0E
1k!
1J
1b!
1D
#665000
0!
0+
0,
#680000
1!
1+
1,
1""
1$"
0%"
0)"
1,"
0-"
00"
01"
15"
16"
0p!
1j!
1d!
0T!
0?!
1+!
0(!
0{
0x
1l
1i
1l!
1e!
0W!
0@!
1,!
0)!
0|
0y
1m
1j
#695000
0!
0+
0,
#700000
b1100111 "
b1100011 "
1!
00
1.
1+
1,
1[!
0Z!
1;!
0-!
0M
07
03
0x!
1a!
0k!
1=!
0/!
1}
1H
0b!
0D
0m
1h!
0l!
1@!
02!
1|
0e!
0,!
05"
0l
#710000
0!
0+
0,
#740000
1!
1+
1,
0""
1#"
0$"
1)"
0+"
0,"
10"
0j!
1g!
0d!
1?!
13!
01!
0+!
1{
#750000
b1110011 "
b1111011 "
b111011 "
b11011 "
b11111 "
0!
10
11
1-
0.
0O
0+
0,
1Y!
0B!
1M
17
16
13
1L
1x!
1d
1a
1^
1[
1X
1U
1Q
1`!
0D!
0}
0H
0#!
0G
1b!
1D
#755000
1!
1+
1,
07"
18"
19"
1:"
1;"
1<"
1="
1>"
1h
1f
0q!
1e
0c
0b
0`
1_
0]
0\
0Z
0x!
1Y
0W
0V
0T
1S
0P
0i
0h
0f
1c
1`
1]
1Z
1W
1T
1g
0d
0a
0^
0[
0X
0U
0Q
1i
0j
0g
1d
1a
1^
1[
1X
1U
1j
#760000
0!
0+
0,
#765000
1!
1+
1,
0>"
0S
1P
0T
1Q
0U
#775000
0!
0+
0,
#790000
1!
1+
1,
0="
1>"
1V
1T
1S
0P
0W
0V
0T
1U
0Q
1W
0X
0U
1X
#800000
b11110 "
b1011110 "
b1111110 "
0!
02
1.
1O
0+
0,
1-!
0J
09
18
15
03
1g
1o!
1e!
0G!
1,!
0"!
0|
1p
1m
0d
0a
0^
0[
0X
1/!
0N
1I
1K!
1F
0b!
0D
0v
12!
0j
1y
1R!
1&!
0e!
0,!
#820000
1!
1+
1,
1!"
1&"
0("
1+"
1."
0/"
00"
11"
02"
14"
15"
08"
09"
0:"
0;"
0<"
0>"
1n!
1Q!
0F!
03!
11!
1%!
0!!
0{
1x
0u
1o
1l
1q!
0c
0`
0]
0Z
0W
0S
1P
1V
1T
0Y
1W
1\
1Z
0_
1]
1b
1`
0e
1c
1h
1f
0i
#840000
0!
0+
0,
#850000
b1111100 "
b1101100 "
1!
0/
0-
1+
1,
0[!
1B!
0;!
04!
0-!
1:
1N
08
07
14
0a!
1D!
0=!
06!
0/!
0M
0I
1}
1H
1V!
1E
1j
0h!
1G!
0@!
09!
02!
0m
0y
1|
1W!
1)!
06"
0k
1i
0l
#860000
0!
0+
0,
#865000
1!
1+
1,
0#"
1%"
1("
0)"
0*"
0+"
1-"
10"
01"
0g!
1T!
1F!
0?!
08!
13!
01!
1(!
1{
1w!
0x
#870000
0!
0+
0,
#885000
1!
1+
1,
#890000
0!
0+
0,
#895000
1!
1+
1,
#900000
b1100100 "
b1100000 "
b1100001 "
b1110001 "
12
00
01
1-
0Y!
1;!
14!
1-!
1J
19
18
06
05
0;
1M
0L
0g
0`!
1=!
16!
1/!
0:
0N
1I
1#!
1G
0K!
0F
1<
1L
1v
1m
0p
1;
0M
0=
1K
0o!
1@!
19!
12!
0j
1y
1"!
0R!
0&!
1p
0<
0L
0J
0m
1s
1=
0K
0p
0v
1J
0s
1v
#910000
0!
0+
0,
#915000
1!
1+
1,
0!"
0&"
1)"
1*"
1+"
0."
1/"
11"
12"
04"
05"
17"
1p!
0n!
0Q!
1?!
18!
03!
11!
0%!
1!!
0w!
1x
1u
0o
1n
1l
0h
0f
0q
1o
1k
0i
1t
1r
0n
0l
0u
1q
0o
0t
0r
1u
#925000
0!
0+
0,
#940000
1!
1+
1,
#950000
b110001 "
b10001 "
b10101 "
b10100 "
02
10
0.
0O
1[!
04!
0J
09
08
15
1M
1x!
1d
1a
1^
1[
1X
1U
1Q
1a!
06!
1:
1N
0I
1K!
1F
0M
#955000
0!
0+
0,
#965000
1!
1+
1,
07"
18"
19"
1:"
1;"
1<"
1="
1>"
1y!
1h
1f
0q!
1e
0c
0b
0`
1_
0]
0\
0Z
0x!
1Y
0W
0V
0T
1S
0P
0k
1i
0h
0f
1c
1`
1]
1Z
1W
1T
1g
0d
0a
0^
0[
0X
0U
0Q
1n
1l
1k
0i
1j
0g
1d
1a
1^
1[
1X
1U
0q
1o
0n
0l
1m
0j
1t
1r
1q
0o
1p
0m
0u
0t
0r
1s
0p
1u
0v
0s
1v
#970000
0!
0+
0,
#990000
1!
1+
1,
0>"
0S
1P
0T
1Q
0U
