LECI/LSD/WSpace/Timer/simulation/qsim/TimerDemo.msim.vcd
$comment
	File created using the following command:
		vcd file TimerDemo.msim.vcd -direction
$end
$date
	Wed Jun 09 10:56:16 2021
$end
$version
	ModelSim Version 10.5b
$end
$timescale
	1ps
$end

$scope module timern_vhd_vec_tst $end
$var wire 1 ! clk $end
$var wire 1 " enable $end
$var wire 1 # reset $end
$var wire 1 $ start $end
$var wire 1 % timerOnDelay $end

$scope module i1 $end
$var wire 1 & gnd $end
$var wire 1 ' vcc $end
$var wire 1 ( unknown $end
$var wire 1 ) devoe $end
$var wire 1 * devclrn $end
$var wire 1 + devpor $end
$var wire 1 , ww_devoe $end
$var wire 1 - ww_devclrn $end
$var wire 1 . ww_devpor $end
$var wire 1 / ww_clk $end
$var wire 1 0 ww_reset $end
$var wire 1 1 ww_enable $end
$var wire 1 2 ww_start $end
$var wire 1 3 ww_timerOnDelay $end
$var wire 1 4 \clk~inputclkctrl_INCLK_bus\ [3] $end
$var wire 1 5 \clk~inputclkctrl_INCLK_bus\ [2] $end
$var wire 1 6 \clk~inputclkctrl_INCLK_bus\ [1] $end
$var wire 1 7 \clk~inputclkctrl_INCLK_bus\ [0] $end
$var wire 1 8 \timerOnDelay~output_o\ $end
$var wire 1 9 \clk~input_o\ $end
$var wire 1 : \clk~inputclkctrl_outclk\ $end
$var wire 1 ; \reset~input_o\ $end
$var wire 1 < \enable~input_o\ $end
$var wire 1 = \s_count[0]~32_combout\ $end
$var wire 1 > \start~input_o\ $end
$var wire 1 ? \s_count[2]~37\ $end
$var wire 1 @ \s_count[3]~41_combout\ $end
$var wire 1 A \s_count[0]~39_combout\ $end
$var wire 1 B \s_count[0]~40_combout\ $end
$var wire 1 C \s_count[3]~42\ $end
$var wire 1 D \s_count[4]~43_combout\ $end
$var wire 1 E \s_count[4]~44\ $end
$var wire 1 F \s_count[5]~45_combout\ $end
$var wire 1 G \s_count[5]~46\ $end
$var wire 1 H \s_count[6]~47_combout\ $end
$var wire 1 I \s_count[6]~48\ $end
$var wire 1 J \s_count[7]~49_combout\ $end
$var wire 1 K \s_count[7]~50\ $end
$var wire 1 L \s_count[8]~51_combout\ $end
$var wire 1 M \s_count[8]~52\ $end
$var wire 1 N \s_count[9]~53_combout\ $end
$var wire 1 O \s_count[9]~54\ $end
$var wire 1 P \s_count[10]~55_combout\ $end
$var wire 1 Q \s_count[10]~56\ $end
$var wire 1 R \s_count[11]~57_combout\ $end
$var wire 1 S \s_count[11]~58\ $end
$var wire 1 T \s_count[12]~59_combout\ $end
$var wire 1 U \s_count[12]~60\ $end
$var wire 1 V \s_count[13]~61_combout\ $end
$var wire 1 W \s_count[13]~62\ $end
$var wire 1 X \s_count[14]~63_combout\ $end
$var wire 1 Y \s_count[14]~64\ $end
$var wire 1 Z \s_count[15]~65_combout\ $end
$var wire 1 [ \s_count[15]~66\ $end
$var wire 1 \ \s_count[16]~67_combout\ $end
$var wire 1 ] \s_count[16]~68\ $end
$var wire 1 ^ \s_count[17]~69_combout\ $end
$var wire 1 _ \s_count[17]~70\ $end
$var wire 1 ` \s_count[18]~71_combout\ $end
$var wire 1 a \s_count[18]~72\ $end
$var wire 1 b \s_count[19]~73_combout\ $end
$var wire 1 c \s_count[19]~74\ $end
$var wire 1 d \s_count[20]~75_combout\ $end
$var wire 1 e \Equal0~5_combout\ $end
$var wire 1 f \s_count[20]~76\ $end
$var wire 1 g \s_count[21]~77_combout\ $end
$var wire 1 h \s_count[21]~78\ $end
$var wire 1 i \s_count[22]~79_combout\ $end
$var wire 1 j \s_count[22]~80\ $end
$var wire 1 k \s_count[23]~81_combout\ $end
$var wire 1 l \s_count[23]~82\ $end
$var wire 1 m \s_count[24]~83_combout\ $end
$var wire 1 n \Equal0~6_combout\ $end
$var wire 1 o \s_count[24]~84\ $end
$var wire 1 p \s_count[25]~85_combout\ $end
$var wire 1 q \s_count[25]~86\ $end
$var wire 1 r \s_count[26]~87_combout\ $end
$var wire 1 s \s_count[26]~88\ $end
$var wire 1 t \s_count[27]~89_combout\ $end
$var wire 1 u \s_count[27]~90\ $end
$var wire 1 v \s_count[28]~91_combout\ $end
$var wire 1 w \s_count[28]~92\ $end
$var wire 1 x \s_count[29]~93_combout\ $end
$var wire 1 y \s_count[29]~94\ $end
$var wire 1 z \s_count[30]~95_combout\ $end
$var wire 1 { \s_count[30]~96\ $end
$var wire 1 | \s_count[31]~97_combout\ $end
$var wire 1 } \Equal0~7_combout\ $end
$var wire 1 ~ \Equal0~8_combout\ $end
$var wire 1 !! \Equal0~0_combout\ $end
$var wire 1 "! \Equal0~1_combout\ $end
$var wire 1 #! \Equal0~2_combout\ $end
$var wire 1 $! \Equal0~3_combout\ $end
$var wire 1 %! \Equal0~4_combout\ $end
$var wire 1 &! \Equal0~9_combout\ $end
$var wire 1 '! \s_count[0]~38_combout\ $end
$var wire 1 (! \s_count[0]~33\ $end
$var wire 1 )! \s_count[1]~34_combout\ $end
$var wire 1 *! \s_count[1]~35\ $end
$var wire 1 +! \s_count[2]~36_combout\ $end
$var wire 1 ,! \timerOnDelay~0_combout\ $end
$var wire 1 -! \timerOnDelay~1_combout\ $end
$var wire 1 .! \timerOnDelay~reg0_q\ $end
$var wire 1 /! s_count [31] $end
$var wire 1 0! s_count [30] $end
$var wire 1 1! s_count [29] $end
$var wire 1 2! s_count [28] $end
$var wire 1 3! s_count [27] $end
$var wire 1 4! s_count [26] $end
$var wire 1 5! s_count [25] $end
$var wire 1 6! s_count [24] $end
$var wire 1 7! s_count [23] $end
$var wire 1 8! s_count [22] $end
$var wire 1 9! s_count [21] $end
$var wire 1 :! s_count [20] $end
$var wire 1 ;! s_count [19] $end
$var wire 1 <! s_count [18] $end
$var wire 1 =! s_count [17] $end
$var wire 1 >! s_count [16] $end
$var wire 1 ?! s_count [15] $end
$var wire 1 @! s_count [14] $end
$var wire 1 A! s_count [13] $end
$var wire 1 B! s_count [12] $end
$var wire 1 C! s_count [11] $end
$var wire 1 D! s_count [10] $end
$var wire 1 E! s_count [9] $end
$var wire 1 F! s_count [8] $end
$var wire 1 G! s_count [7] $end
$var wire 1 H! s_count [6] $end
$var wire 1 I! s_count [5] $end
$var wire 1 J! s_count [4] $end
$var wire 1 K! s_count [3] $end
$var wire 1 L! s_count [2] $end
$var wire 1 M! s_count [1] $end
$var wire 1 N! s_count [0] $end
$upscope $end
$upscope $end
$enddefinitions $end
#0
$dumpvars
0!
1"
0#
0$
0%
0&
1'
x(
1)
1*
1+
1,
1-
1.
0/
00
11
02
03
08
09
0:
0;
1<
1=
0>
0?
0@
1A
0B
1C
0D
0E
0F
1G
0H
0I
0J
1K
0L
0M
0N
1O
0P
0Q
0R
1S
0T
0U
0V
1W
0X
0Y
0Z
1[
0\
0]
0^
1_
0`
0a
0b
1c
0d
1e
0f
0g
1h
0i
0j
0k
1l
0m
1n
0o
0p
1q
0r
0s
0t
1u
0v
0w
0x
1y
0z
0{
0|
1}
1~
1!!
1"!
1#!
1$!
1%!
1&!
1'!
0(!
0)!
1*!
0+!
0,!
0-!
0.!
0/!
00!
01!
02!
03!
04!
05!
06!
07!
08!
09!
0:!
0;!
0<!
0=!
0>!
0?!
0@!
0A!
0B!
0C!
0D!
0E!
0F!
0G!
0H!
0I!
0J!
0K!
0L!
0M!
0N!
14
15
16
07
$end
#10000
1$
12
1>
0A
0'!
1B
#25000
1!
1/
19
17
1:
1N!
0=
1(!
0!!
0%!
1)!
0&!
#30000
0$
02
0>
#50000
0!
0/
09
07
0:
#75000
1!
1/
19
17
1:
0N!
1M!
0)!
0*!
1=
0(!
1)!
1*!
1+!
0+!
#100000
0!
0/
09
07
0:
#125000
1!
1/
19
17
1:
1N!
0=
1(!
0)!
0*!
1+!
#150000
0!
0/
09
07
0:
#175000
1!
1/
19
17
1:
0N!
0M!
1L!
0+!
1?
1)!
1*!
1=
0(!
1!!
1%!
0)!
1+!
0?
1@
0@
1&!
1'!
1,!
1-!
#200000
0!
0/
09
07
0:
#225000
1!
1/
19
17
1:
0L!
1.!
0+!
1A
0,!
0-!
0B
18
13
1%
#250000
0!
0/
09
07
0:
#275000
1!
1/
19
17
1:
0.!
08
03
0%
#280000
1#
10
1;
0A
1B
#300000
0!
1$
0/
12
1>
09
07
0:
#325000
1!
1/
19
17
1:
#350000
0!
0/
09
07
0:
#375000
1!
1/
19
17
1:
#400000
0!
0$
0#
0/
02
00
0;
0>
09
07
1A
0B
0:
#425000
1!
1/
19
17
1:
#450000
0!
0/
09
07
0:
#475000
1!
1/
19
17
1:
#500000
0!
0/
09
07
0:
#525000
1!
1/
19
17
1:
#550000
0!
0/
09
07
0:
#575000
1!
1/
19
17
1:
#600000
0!
0/
09
07
0:
#625000
1!
1/
19
17
1:
#650000
0!
0/
09
07
0:
#675000
1!
1/
19
17
1:
#700000
0!
0/
09
07
0:
#725000
1!
1/
19
17
1:
#750000
0!
0/
09
07
0:
#775000
1!
1/
19
17
1:
#800000
0!
1$
1#
0/
12
10
1;
1>
09
07
0A
1B
0:
#825000
1!
1/
19
17
1:
#850000
0!
0/
09
07
0:
#875000
1!
1/
19
17
1:
#900000
0!
0$
0/
02
0>
09
07
0:
#925000
1!
1/
19
17
1:
#950000
0!
0/
09
07
0:
#975000
1!
1/
19
17
1:
